Barcode	ASIG	QUAL	FORMAT	normal	SC1	SC2
AAACCTGAGATCCTGT-1	normal	3.46787	OBS:POBS:DOBS:DPOBS:QUAL	0:0:0:0:3.46787	0:0:0:0:0.655015	0:0:0:0:1.61151
AAACCTGTCCACGTGG-1	normal	3.46787	OBS:POBS:DOBS:DPOBS:QUAL	0:0:0:0:3.46787	0:0:0:0:0.655015	0:0:0:0:1.61151
AAACGGGAGCGCTTAT-1	SC1	12.1002	OBS:POBS:DOBS:DPOBS:QUAL	2:0:0:0:0.234951	2:1:1:1:12.1002	2:0:1:0:0.0392399
AAACGGGTCGAGAGCA-1	SC2	51.8781	OBS:POBS:DOBS:DPOBS:QUAL	3:0:0:0:2.24641e-05	3:0:0:0:5.71813e-06	3:3:3:3:51.8781
AAAGCAACACGAAACG-1	SC2	51.8781	OBS:POBS:DOBS:DPOBS:QUAL	3:0:0:0:2.24641e-05	3:0:0:0:5.71813e-06	3:3:3:3:51.8781
AAATGCCAGGAATTAC-1	SC1	12.1002	OBS:POBS:DOBS:DPOBS:QUAL	2:0:0:0:0.234951	2:1:1:1:12.1002	2:0:1:0:0.0392399
AACCATGCATAAAGGT-1	normal	6.29893	OBS:POBS:DOBS:DPOBS:QUAL	2:0:0:0:6.29893	2:0:0:0:0.941283	2:0:2:0:0.175574
AACCATGGTCATCGGC-1	SC2	51.8781	OBS:POBS:DOBS:DPOBS:QUAL	3:0:0:0:2.24641e-05	3:0:0:0:5.71813e-06	3:3:3:3:51.8781
AACCATGGTTACGACT-1	normal	3.46787	OBS:POBS:DOBS:DPOBS:QUAL	0:0:0:0:3.46787	0:0:0:0:0.655015	0:0:0:0:1.61151
AACCATGTCTTGCCGT-1	SC2	51.8781	OBS:POBS:DOBS:DPOBS:QUAL	3:0:0:0:2.24641e-05	3:0:0:0:5.71813e-06	3:3:3:3:51.8781
AACCGCGAGCTCAACT-1	normal	3.46787	OBS:POBS:DOBS:DPOBS:QUAL	0:0:0:0:3.46787	0:0:0:0:0.655015	0:0:0:0:1.61151
AACCGCGGTTCGGCAC-1	SC2	51.8781	OBS:POBS:DOBS:DPOBS:QUAL	3:0:0:0:2.24641e-05	3:0:0:0:5.71813e-06	3:3:3:3:51.8781
AACGTTGAGTCACGCC-1	SC2	10.2243	OBS:POBS:DOBS:DPOBS:QUAL	2:0:0:0:0.341859	2:0:0:0:0.0844986	2:1:2:1:10.2243
AACTCAGGTTATTCTC-1	SC2	10.2243	OBS:POBS:DOBS:DPOBS:QUAL	2:0:0:0:0.341859	2:0:0:0:0.0844986	2:1:2:1:10.2243
AACTCAGGTTGACGTT-1	normal	3.46787	OBS:POBS:DOBS:DPOBS:QUAL	0:0:0:0:3.46787	0:0:0:0:0.655015	0:0:0:0:1.61151
AACTCCCAGCTGCCCA-1	SC1	12.5385	OBS:POBS:DOBS:DPOBS:QUAL	3:0:0:0:0.236474	3:1:1:1:12.5385	3:0:2:0:0.0119284
AACTCCCTCCTACAGA-1	SC2	33.4291	OBS:POBS:DOBS:DPOBS:QUAL	2:0:0:0:0.00157207	2:0:0:0:0.000400108	2:2:2:2:33.4291
AACTCTTAGCCACGTC-1	SC1	12.1002	OBS:POBS:DOBS:DPOBS:QUAL	2:0:0:0:0.234951	2:1:1:1:12.1002	2:0:1:0:0.0392399
AACTCTTGTAAGAGGA-1	SC2	33.4291	OBS:POBS:DOBS:DPOBS:QUAL	2:0:0:0:0.00157207	2:0:0:0:0.000400108	2:2:2:2:33.4291
AACTGGTCAGATGAGC-1	SC2	33.4291	OBS:POBS:DOBS:DPOBS:QUAL	2:0:0:0:0.00157207	2:0:0:0:0.000400108	2:2:2:2:33.4291
AACTTTCAGAGAGCTC-1	normal	6.29893	OBS:POBS:DOBS:DPOBS:QUAL	2:0:0:0:6.29893	2:0:0:0:0.941283	2:0:2:0:0.175574
AACTTTCTCGAGCCCA-1	SC2	51.8781	OBS:POBS:DOBS:DPOBS:QUAL	3:0:0:0:2.24641e-05	3:0:0:0:5.71813e-06	3:3:3:3:51.8781
AACTTTCTCTTGACGA-1	SC1	12.1002	OBS:POBS:DOBS:DPOBS:QUAL	2:0:0:0:0.234951	2:1:1:1:12.1002	2:0:1:0:0.0392399
AAGACCTCATTTCACT-1	SC2	10.2243	OBS:POBS:DOBS:DPOBS:QUAL	2:0:0:0:0.341859	2:0:0:0:0.0844986	2:1:2:1:10.2243
AAGCCGCAGCTAGCCC-1	SC2	51.8781	OBS:POBS:DOBS:DPOBS:QUAL	3:0:0:0:2.24641e-05	3:0:0:0:5.71813e-06	3:3:3:3:51.8781
AAGCCGCGTACCGCTG-1	normal	6.29893	OBS:POBS:DOBS:DPOBS:QUAL	2:0:0:0:6.29893	2:0:0:0:0.941283	2:0:2:0:0.175574
AAGGAGCCAGATGAGC-1	normal	4.08345	OBS:POBS:DOBS:DPOBS:QUAL	1:0:0:0:4.08345	1:0:1:0:0.209123	1:0:0:0:1.82778
AATCGGTCACGCGAAA-1	normal	6.29893	OBS:POBS:DOBS:DPOBS:QUAL	2:0:0:0:6.29893	2:0:0:0:0.941283	2:0:2:0:0.175574
AATCGGTTCACGGTTA-1	SC2	51.8781	OBS:POBS:DOBS:DPOBS:QUAL	3:0:0:0:2.24641e-05	3:0:0:0:5.71813e-06	3:3:3:3:51.8781
ACACCAAGTATAGGGC-1	SC1	12.1002	OBS:POBS:DOBS:DPOBS:QUAL	2:0:0:0:0.234951	2:1:1:1:12.1002	2:0:1:0:0.0392399
ACACCCTGTCCGACGT-1	SC2	51.8781	OBS:POBS:DOBS:DPOBS:QUAL	3:0:0:0:2.24641e-05	3:0:0:0:5.71813e-06	3:3:3:3:51.8781
ACACCGGAGTACGACG-1	SC2	51.8781	OBS:POBS:DOBS:DPOBS:QUAL	3:0:0:0:2.24641e-05	3:0:0:0:5.71813e-06	3:3:3:3:51.8781
ACACCGGCACGACGAA-1	SC2	51.8781	OBS:POBS:DOBS:DPOBS:QUAL	3:0:0:0:2.24641e-05	3:0:0:0:5.71813e-06	3:3:3:3:51.8781
ACACTGAAGCCAGAAC-1	SC2	51.8781	OBS:POBS:DOBS:DPOBS:QUAL	3:0:0:0:2.24641e-05	3:0:0:0:5.71813e-06	3:3:3:3:51.8781
ACACTGATCTCTTATG-1	SC2	51.8781	OBS:POBS:DOBS:DPOBS:QUAL	3:0:0:0:2.24641e-05	3:0:0:0:5.71813e-06	3:3:3:3:51.8781
ACAGCCGCATGCCCGA-1	SC2	51.8781	OBS:POBS:DOBS:DPOBS:QUAL	3:0:0:0:2.24641e-05	3:0:0:0:5.71813e-06	3:3:3:3:51.8781
ACAGCTAAGATCTGAA-1	normal	3.46787	OBS:POBS:DOBS:DPOBS:QUAL	0:0:0:0:3.46787	0:0:0:0:0.655015	0:0:0:0:1.61151
ACATACGTCAGTTGAC-1	SC2	33.4291	OBS:POBS:DOBS:DPOBS:QUAL	2:0:0:0:0.00157207	2:0:0:0:0.000400108	2:2:2:2:33.4291
ACATGGTAGGCTAGCA-1	SC2	51.8781	OBS:POBS:DOBS:DPOBS:QUAL	3:0:0:0:2.24641e-05	3:0:0:0:5.71813e-06	3:3:3:3:51.8781
ACCAGTAAGTCCAGGA-1	SC2	51.8781	OBS:POBS:DOBS:DPOBS:QUAL	3:0:0:0:2.24641e-05	3:0:0:0:5.71813e-06	3:3:3:3:51.8781
ACCCACTAGGTGACCA-1	SC2	51.8781	OBS:POBS:DOBS:DPOBS:QUAL	3:0:0:0:2.24641e-05	3:0:0:0:5.71813e-06	3:3:3:3:51.8781
ACGAGCCCATTATCTC-1	SC2	51.8781	OBS:POBS:DOBS:DPOBS:QUAL	3:0:0:0:2.24641e-05	3:0:0:0:5.71813e-06	3:3:3:3:51.8781
ACGAGCCTCATGTAGC-1	normal	3.46787	OBS:POBS:DOBS:DPOBS:QUAL	0:0:0:0:3.46787	0:0:0:0:0.655015	0:0:0:0:1.61151
ACGAGGAGTAAACGCG-1	SC1	12.1002	OBS:POBS:DOBS:DPOBS:QUAL	2:0:0:0:0.234951	2:1:1:1:12.1002	2:0:1:0:0.0392399
ACGATGTCAGCTGCTG-1	SC1	12.1002	OBS:POBS:DOBS:DPOBS:QUAL	2:0:0:0:0.234951	2:1:1:1:12.1002	2:0:1:0:0.0392399
ACGCAGCAGGTGACCA-1	normal	3.46787	OBS:POBS:DOBS:DPOBS:QUAL	0:0:0:0:3.46787	0:0:0:0:0.655015	0:0:0:0:1.61151
ACGCAGCGTATGGTTC-1	normal	3.46787	OBS:POBS:DOBS:DPOBS:QUAL	0:0:0:0:3.46787	0:0:0:0:0.655015	0:0:0:0:1.61151
ACGGAGAAGACTAGGC-1	SC2	51.8781	OBS:POBS:DOBS:DPOBS:QUAL	3:0:0:0:2.24641e-05	3:0:0:0:5.71813e-06	3:3:3:3:51.8781
ACGGCCACACCAGGCT-1	normal	4.08345	OBS:POBS:DOBS:DPOBS:QUAL	1:0:0:0:4.08345	1:0:1:0:0.209123	1:0:0:0:1.82778
ACGGCCAGTATATGGA-1	normal	3.46787	OBS:POBS:DOBS:DPOBS:QUAL	0:0:0:0:3.46787	0:0:0:0:0.655015	0:0:0:0:1.61151
ACTGAACCAGTATAAG-1	normal	3.46787	OBS:POBS:DOBS:DPOBS:QUAL	0:0:0:0:3.46787	0:0:0:0:0.655015	0:0:0:0:1.61151
ACTGAACGTCAGTGGA-1	normal	6.29893	OBS:POBS:DOBS:DPOBS:QUAL	2:0:0:0:6.29893	2:0:0:0:0.941283	2:0:2:0:0.175574
ACTGAGTGTGAAGGCT-1	normal	6.29893	OBS:POBS:DOBS:DPOBS:QUAL	2:0:0:0:6.29893	2:0:0:0:0.941283	2:0:2:0:0.175574
ACTGATGCAAACCCAT-1	SC1	12.1002	OBS:POBS:DOBS:DPOBS:QUAL	2:0:0:0:0.234951	2:1:1:1:12.1002	2:0:1:0:0.0392399
ACTGATGGTAGTAGTA-1	normal	3.46787	OBS:POBS:DOBS:DPOBS:QUAL	0:0:0:0:3.46787	0:0:0:0:0.655015	0:0:0:0:1.61151
ACTGCTCGTCAGAAGC-1	normal	3.46787	OBS:POBS:DOBS:DPOBS:QUAL	0:0:0:0:3.46787	0:0:0:0:0.655015	0:0:0:0:1.61151
ACTGCTCTCATGTCCC-1	normal	6.29893	OBS:POBS:DOBS:DPOBS:QUAL	2:0:0:0:6.29893	2:0:0:0:0.941283	2:0:2:0:0.175574
ACTTACTAGTACTTGC-1	normal	6.29893	OBS:POBS:DOBS:DPOBS:QUAL	2:0:0:0:6.29893	2:0:0:0:0.941283	2:0:2:0:0.175574
ACTTACTTCGATAGAA-1	SC2	33.4291	OBS:POBS:DOBS:DPOBS:QUAL	2:0:0:0:0.00157207	2:0:0:0:0.000400108	2:2:2:2:33.4291
ACTTGTTCAAGTAATG-1	SC2	51.8781	OBS:POBS:DOBS:DPOBS:QUAL	3:0:0:0:2.24641e-05	3:0:0:0:5.71813e-06	3:3:3:3:51.8781
AGAATAGCAGCCTGTG-1	SC1	12.1002	OBS:POBS:DOBS:DPOBS:QUAL	2:0:0:0:0.234951	2:1:1:1:12.1002	2:0:1:0:0.0392399
AGAATAGTCTGGCGAC-1	normal	6.29893	OBS:POBS:DOBS:DPOBS:QUAL	2:0:0:0:6.29893	2:0:0:0:0.941283	2:0:2:0:0.175574
AGACGTTTCGTAGGAG-1	normal	6.29893	OBS:POBS:DOBS:DPOBS:QUAL	2:0:0:0:6.29893	2:0:0:0:0.941283	2:0:2:0:0.175574
AGAGCGACAAACTGTC-1	SC1	12.1002	OBS:POBS:DOBS:DPOBS:QUAL	2:0:0:0:0.234951	2:1:1:1:12.1002	2:0:1:0:0.0392399
AGAGCGAGTACGAAAT-1	SC1	12.1002	OBS:POBS:DOBS:DPOBS:QUAL	2:0:0:0:0.234951	2:1:1:1:12.1002	2:0:1:0:0.0392399
AGATCTGGTTTGACTG-1	SC2	51.8781	OBS:POBS:DOBS:DPOBS:QUAL	3:0:0:0:2.24641e-05	3:0:0:0:5.71813e-06	3:3:3:3:51.8781
AGATCTGTCCACGACG-1	SC2	51.8781	OBS:POBS:DOBS:DPOBS:QUAL	3:0:0:0:2.24641e-05	3:0:0:0:5.71813e-06	3:3:3:3:51.8781
AGATTGCGTACAAGTA-1	normal	3.46787	OBS:POBS:DOBS:DPOBS:QUAL	0:0:0:0:3.46787	0:0:0:0:0.655015	0:0:0:0:1.61151
AGCAGCCAGAAACGCC-1	normal	3.46787	OBS:POBS:DOBS:DPOBS:QUAL	0:0:0:0:3.46787	0:0:0:0:0.655015	0:0:0:0:1.61151
AGCAGCCCATGACGGA-1	SC2	23.0782	OBS:POBS:DOBS:DPOBS:QUAL	4:0:0:0:0.0170737	4:0:0:0:0.00433967	4:2:4:2:23.0782
AGCCTAAGTAACGACG-1	SC1	12.1002	OBS:POBS:DOBS:DPOBS:QUAL	2:0:0:0:0.234951	2:1:1:1:12.1002	2:0:1:0:0.0392399
AGCGGTCCACGGCCAT-1	SC2	51.8781	OBS:POBS:DOBS:DPOBS:QUAL	3:0:0:0:2.24641e-05	3:0:0:0:5.71813e-06	3:3:3:3:51.8781
AGCTCCTTCTTGCATT-1	normal	6.29893	OBS:POBS:DOBS:DPOBS:QUAL	2:0:0:0:6.29893	2:0:0:0:0.941283	2:0:2:0:0.175574
AGCTCTCCACTTCGAA-1	normal	3.46787	OBS:POBS:DOBS:DPOBS:QUAL	0:0:0:0:3.46787	0:0:0:0:0.655015	0:0:0:0:1.61151
AGCTCTCGTCAAAGCG-1	normal	4.08345	OBS:POBS:DOBS:DPOBS:QUAL	1:0:0:0:4.08345	1:0:1:0:0.209123	1:0:0:0:1.82778
AGCTTGAAGGTACTCT-1	SC1	12.1002	OBS:POBS:DOBS:DPOBS:QUAL	2:0:0:0:0.234951	2:1:1:1:12.1002	2:0:1:0:0.0392399
AGCTTGAAGTCACGCC-1	SC2	10.2243	OBS:POBS:DOBS:DPOBS:QUAL	2:0:0:0:0.341859	2:0:0:0:0.0844986	2:1:2:1:10.2243
AGCTTGAGTCCGTCAG-1	normal	6.29893	OBS:POBS:DOBS:DPOBS:QUAL	2:0:0:0:6.29893	2:0:0:0:0.941283	2:0:2:0:0.175574
AGGCCACAGGCACATG-1	SC1	10.9326	OBS:POBS:DOBS:DPOBS:QUAL	1:0:0:0:0.23006	1:1:1:1:10.9326	1:0:0:0:0.128169
AGGCCGTAGTGAACGC-1	normal	3.46787	OBS:POBS:DOBS:DPOBS:QUAL	0:0:0:0:3.46787	0:0:0:0:0.655015	0:0:0:0:1.61151
AGGGTGACATGTCCTC-1	normal	3.46787	OBS:POBS:DOBS:DPOBS:QUAL	0:0:0:0:3.46787	0:0:0:0:0.655015	0:0:0:0:1.61151
AGGTCCGCAAACCCAT-1	SC2	10.2243	OBS:POBS:DOBS:DPOBS:QUAL	2:0:0:0:0.341859	2:0:0:0:0.0844986	2:1:2:1:10.2243
AGGTCCGTCCGCGTTT-1	normal	3.46787	OBS:POBS:DOBS:DPOBS:QUAL	0:0:0:0:3.46787	0:0:0:0:0.655015	0:0:0:0:1.61151
AGTAGTCCATCCCATC-1	SC2	51.8781	OBS:POBS:DOBS:DPOBS:QUAL	3:0:0:0:2.24641e-05	3:0:0:0:5.71813e-06	3:3:3:3:51.8781
AGTCTTTTCATTTGGG-1	SC2	51.8781	OBS:POBS:DOBS:DPOBS:QUAL	3:0:0:0:2.24641e-05	3:0:0:0:5.71813e-06	3:3:3:3:51.8781
AGTGAGGAGTCTCCTC-1	SC2	10.2243	OBS:POBS:DOBS:DPOBS:QUAL	2:0:0:0:0.341859	2:0:0:0:0.0844986	2:1:2:1:10.2243
AGTGAGGTCTTGGGTA-1	normal	6.29893	OBS:POBS:DOBS:DPOBS:QUAL	2:0:0:0:6.29893	2:0:0:0:0.941283	2:0:2:0:0.175574
AGTGTCAGTGGTCTCG-1	SC1	12.1002	OBS:POBS:DOBS:DPOBS:QUAL	2:0:0:0:0.234951	2:1:1:1:12.1002	2:0:1:0:0.0392399
AGTTGGTGTTCCTCCA-1	SC1	12.1002	OBS:POBS:DOBS:DPOBS:QUAL	2:0:0:0:0.234951	2:1:1:1:12.1002	2:0:1:0:0.0392399
ATAACGCAGTTCCACA-1	SC2	51.8781	OBS:POBS:DOBS:DPOBS:QUAL	3:0:0:0:2.24641e-05	3:0:0:0:5.71813e-06	3:3:3:3:51.8781
ATAAGAGTCCAAACTG-1	normal	5.25179	OBS:POBS:DOBS:DPOBS:QUAL	1:0:0:0:5.25179	1:0:0:0:0.854375	1:0:1:0:0.554334
ATAAGAGTCGGAATCT-1	normal	6.29893	OBS:POBS:DOBS:DPOBS:QUAL	2:0:0:0:6.29893	2:0:0:0:0.941283	2:0:2:0:0.175574
ATCACGAGTAGGGTAC-1	SC2	51.8781	OBS:POBS:DOBS:DPOBS:QUAL	3:0:0:0:2.24641e-05	3:0:0:0:5.71813e-06	3:3:3:3:51.8781
ATCATCTTCAGTTAGC-1	SC2	33.4291	OBS:POBS:DOBS:DPOBS:QUAL	2:0:0:0:0.00157207	2:0:0:0:0.000400108	2:2:2:2:33.4291
ATCATGGCAGTGAGTG-1	normal	3.46787	OBS:POBS:DOBS:DPOBS:QUAL	0:0:0:0:3.46787	0:0:0:0:0.655015	0:0:0:0:1.61151
ATCCACCCATTATCTC-1	normal	3.46787	OBS:POBS:DOBS:DPOBS:QUAL	0:0:0:0:3.46787	0:0:0:0:0.655015	0:0:0:0:1.61151
ATCCACCGTTGTTTGG-1	SC1	12.1002	OBS:POBS:DOBS:DPOBS:QUAL	2:0:0:0:0.234951	2:1:1:1:12.1002	2:0:1:0:0.0392399
ATCGAGTCATTGGCGC-1	normal	3.46787	OBS:POBS:DOBS:DPOBS:QUAL	0:0:0:0:3.46787	0:0:0:0:0.655015	0:0:0:0:1.61151
ATCGAGTTCCGAAGAG-1	SC2	33.4291	OBS:POBS:DOBS:DPOBS:QUAL	2:0:0:0:0.00157207	2:0:0:0:0.000400108	2:2:2:2:33.4291
ATCTGCCGTGCCTGCA-1	normal	3.46787	OBS:POBS:DOBS:DPOBS:QUAL	0:0:0:0:3.46787	0:0:0:0:0.655015	0:0:0:0:1.61151
ATCTGCCTCGGATGTT-1	SC2	51.8781	OBS:POBS:DOBS:DPOBS:QUAL	3:0:0:0:2.24641e-05	3:0:0:0:5.71813e-06	3:3:3:3:51.8781
ATGCGATCAACGATGG-1	normal	3.46787	OBS:POBS:DOBS:DPOBS:QUAL	0:0:0:0:3.46787	0:0:0:0:0.655015	0:0:0:0:1.61151
ATGGGAGCACAAGCCC-1	normal	6.72149	OBS:POBS:DOBS:DPOBS:QUAL	3:0:0:0:6.72149	3:0:0:0:0.971236	3:0:3:0:0.0539578
ATGGGAGTCCCAGGTG-1	normal	3.46787	OBS:POBS:DOBS:DPOBS:QUAL	0:0:0:0:3.46787	0:0:0:0:0.655015	0:0:0:0:1.61151
ATGTGTGCAAATACAG-1	SC2	51.8781	OBS:POBS:DOBS:DPOBS:QUAL	3:0:0:0:2.24641e-05	3:0:0:0:5.71813e-06	3:3:3:3:51.8781
ATGTGTGGTAGTACCT-1	SC2	51.8781	OBS:POBS:DOBS:DPOBS:QUAL	3:0:0:0:2.24641e-05	3:0:0:0:5.71813e-06	3:3:3:3:51.8781
ATTGGACCACCTCGGA-1	normal	3.46787	OBS:POBS:DOBS:DPOBS:QUAL	0:0:0:0:3.46787	0:0:0:0:0.655015	0:0:0:0:1.61151
ATTGGACTCGCCCTTA-1	SC2	51.8781	OBS:POBS:DOBS:DPOBS:QUAL	3:0:0:0:2.24641e-05	3:0:0:0:5.71813e-06	3:3:3:3:51.8781
ATTTCTGCATCCGGGT-1	SC2	23.0782	OBS:POBS:DOBS:DPOBS:QUAL	4:0:0:0:0.0170737	4:0:0:0:0.00433967	4:2:4:2:23.0782
ATTTCTGGTGGGTATG-1	SC2	10.2243	OBS:POBS:DOBS:DPOBS:QUAL	2:0:0:0:0.341859	2:0:0:0:0.0844986	2:1:2:1:10.2243
ATTTCTGTCCAGGGCT-1	SC2	51.8781	OBS:POBS:DOBS:DPOBS:QUAL	3:0:0:0:2.24641e-05	3:0:0:0:5.71813e-06	3:3:3:3:51.8781
CAACCAATCGTCCAGG-1	normal	3.46787	OBS:POBS:DOBS:DPOBS:QUAL	0:0:0:0:3.46787	0:0:0:0:0.655015	0:0:0:0:1.61151
CAACCTCGTACAGACG-1	normal	3.46787	OBS:POBS:DOBS:DPOBS:QUAL	0:0:0:0:3.46787	0:0:0:0:0.655015	0:0:0:0:1.61151
CAAGAAATCGGCGCTA-1	SC2	51.8781	OBS:POBS:DOBS:DPOBS:QUAL	3:0:0:0:2.24641e-05	3:0:0:0:5.71813e-06	3:3:3:3:51.8781
CAAGATCCATGGTCAT-1	SC2	51.8781	OBS:POBS:DOBS:DPOBS:QUAL	3:0:0:0:2.24641e-05	3:0:0:0:5.71813e-06	3:3:3:3:51.8781
CAAGATCTCCATGCTC-1	normal	6.29893	OBS:POBS:DOBS:DPOBS:QUAL	2:0:0:0:6.29893	2:0:0:0:0.941283	2:0:2:0:0.175574
CAAGGCCCAACACCTA-1	normal	3.46787	OBS:POBS:DOBS:DPOBS:QUAL	0:0:0:0:3.46787	0:0:0:0:0.655015	0:0:0:0:1.61151
CAAGGCCCAAGAGGCT-1	SC1	12.1002	OBS:POBS:DOBS:DPOBS:QUAL	2:0:0:0:0.234951	2:1:1:1:12.1002	2:0:1:0:0.0392399
CAAGGCCCACGCATCG-1	SC1	12.1002	OBS:POBS:DOBS:DPOBS:QUAL	2:0:0:0:0.234951	2:1:1:1:12.1002	2:0:1:0:0.0392399
CAAGGCCGTACAGTGG-1	normal	6.29893	OBS:POBS:DOBS:DPOBS:QUAL	2:0:0:0:6.29893	2:0:0:0:0.941283	2:0:2:0:0.175574
CAAGTTGAGTGCGATG-1	normal	3.46787	OBS:POBS:DOBS:DPOBS:QUAL	0:0:0:0:3.46787	0:0:0:0:0.655015	0:0:0:0:1.61151
CACACAAAGCGTTTAC-1	normal	6.29893	OBS:POBS:DOBS:DPOBS:QUAL	2:0:0:0:6.29893	2:0:0:0:0.941283	2:0:2:0:0.175574
CACACAACATTATCTC-1	normal	5.25179	OBS:POBS:DOBS:DPOBS:QUAL	1:0:0:0:5.25179	1:0:0:0:0.854375	1:0:1:0:0.554334
CACAGTATCAACACTG-1	normal	3.46787	OBS:POBS:DOBS:DPOBS:QUAL	0:0:0:0:3.46787	0:0:0:0:0.655015	0:0:0:0:1.61151
CACATTTTCTTGCAAG-1	SC2	5.89716	OBS:POBS:DOBS:DPOBS:QUAL	3:0:0:0:0.996443	3:0:0:0:0.232774	3:1:3:1:5.89716
CACCAGGGTGTGCCTG-1	SC2	51.8781	OBS:POBS:DOBS:DPOBS:QUAL	3:0:0:0:2.24641e-05	3:0:0:0:5.71813e-06	3:3:3:3:51.8781
CACTCCAAGTGTCCAT-1	normal	5.25179	OBS:POBS:DOBS:DPOBS:QUAL	1:0:0:0:5.25179	1:0:0:0:0.854375	1:0:1:0:0.554334
CAGAGAGAGATCTGAA-1	normal	3.46787	OBS:POBS:DOBS:DPOBS:QUAL	0:0:0:0:3.46787	0:0:0:0:0.655015	0:0:0:0:1.61151
CAGAGAGCAAGTCTAC-1	SC1	12.1002	OBS:POBS:DOBS:DPOBS:QUAL	2:0:0:0:0.234951	2:1:1:1:12.1002	2:0:1:0:0.0392399
CAGATCAAGATATGCA-1	normal	6.29893	OBS:POBS:DOBS:DPOBS:QUAL	2:0:0:0:6.29893	2:0:0:0:0.941283	2:0:2:0:0.175574
CAGATCAGTCCCGACA-1	SC2	51.8781	OBS:POBS:DOBS:DPOBS:QUAL	3:0:0:0:2.24641e-05	3:0:0:0:5.71813e-06	3:3:3:3:51.8781
CAGCAGCAGCAAATCA-1	SC2	10.2243	OBS:POBS:DOBS:DPOBS:QUAL	2:0:0:0:0.341859	2:0:0:0:0.0844986	2:1:2:1:10.2243
CAGCAGCGTGAGTGAC-1	normal	3.46787	OBS:POBS:DOBS:DPOBS:QUAL	0:0:0:0:3.46787	0:0:0:0:0.655015	0:0:0:0:1.61151
CAGCTAATCACCACCT-1	normal	6.29893	OBS:POBS:DOBS:DPOBS:QUAL	2:0:0:0:6.29893	2:0:0:0:0.941283	2:0:2:0:0.175574
CAGCTGGGTACGCACC-1	normal	6.29893	OBS:POBS:DOBS:DPOBS:QUAL	2:0:0:0:6.29893	2:0:0:0:0.941283	2:0:2:0:0.175574
CATATGGAGCATCATC-1	SC2	10.2243	OBS:POBS:DOBS:DPOBS:QUAL	2:0:0:0:0.341859	2:0:0:0:0.0844986	2:1:2:1:10.2243
CATATGGAGGCCATAG-1	normal	6.29893	OBS:POBS:DOBS:DPOBS:QUAL	2:0:0:0:6.29893	2:0:0:0:0.941283	2:0:2:0:0.175574
CATATGGCAGGTCCAC-1	SC1	10.9326	OBS:POBS:DOBS:DPOBS:QUAL	1:0:0:0:0.23006	1:1:1:1:10.9326	1:0:0:0:0.128169
CATATGGGTTGTCGCG-1	SC2	51.8781	OBS:POBS:DOBS:DPOBS:QUAL	3:0:0:0:2.24641e-05	3:0:0:0:5.71813e-06	3:3:3:3:51.8781
CATATGGTCATCTGCC-1	SC2	51.8781	OBS:POBS:DOBS:DPOBS:QUAL	3:0:0:0:2.24641e-05	3:0:0:0:5.71813e-06	3:3:3:3:51.8781
CATATTCGTTAGATGA-1	normal	6.29893	OBS:POBS:DOBS:DPOBS:QUAL	2:0:0:0:6.29893	2:0:0:0:0.941283	2:0:2:0:0.175574
CATCAGACATGTCTCC-1	normal	3.46787	OBS:POBS:DOBS:DPOBS:QUAL	0:0:0:0:3.46787	0:0:0:0:0.655015	0:0:0:0:1.61151
CATCGAATCCTCCTAG-1	normal	6.29893	OBS:POBS:DOBS:DPOBS:QUAL	2:0:0:0:6.29893	2:0:0:0:0.941283	2:0:2:0:0.175574
CATCGGGCATTGGTAC-1	SC2	51.8781	OBS:POBS:DOBS:DPOBS:QUAL	3:0:0:0:2.24641e-05	3:0:0:0:5.71813e-06	3:3:3:3:51.8781
CATCGGGGTCTGCAAT-1	SC2	33.4291	OBS:POBS:DOBS:DPOBS:QUAL	2:0:0:0:0.00157207	2:0:0:0:0.000400108	2:2:2:2:33.4291
CATGGCGTCGCGCCAA-1	SC2	10.8278	OBS:POBS:DOBS:DPOBS:QUAL	3:0:0:0:0.346703	3:0:1:0:0.0257797	3:1:2:1:10.8278
CATTATCCACGCATCG-1	SC2	33.4291	OBS:POBS:DOBS:DPOBS:QUAL	2:0:0:0:0.00157207	2:0:0:0:0.000400108	2:2:2:2:33.4291
CATTATCCAGGAACGT-1	normal	3.46787	OBS:POBS:DOBS:DPOBS:QUAL	0:0:0:0:3.46787	0:0:0:0:0.655015	0:0:0:0:1.61151
CATTCGCAGATCTGCT-1	normal	3.46787	OBS:POBS:DOBS:DPOBS:QUAL	0:0:0:0:3.46787	0:0:0:0:0.655015	0:0:0:0:1.61151
CCACCTACAGCTATTG-1	normal	4.08345	OBS:POBS:DOBS:DPOBS:QUAL	1:0:0:0:4.08345	1:0:1:0:0.209123	1:0:0:0:1.82778
CCACCTAGTCGATTGT-1	SC2	51.8781	OBS:POBS:DOBS:DPOBS:QUAL	3:0:0:0:2.24641e-05	3:0:0:0:5.71813e-06	3:3:3:3:51.8781
CCACTACAGAGCTGCA-1	normal	3.46787	OBS:POBS:DOBS:DPOBS:QUAL	0:0:0:0:3.46787	0:0:0:0:0.655015	0:0:0:0:1.61151
CCACTACTCGAACGGA-1	normal	6.29893	OBS:POBS:DOBS:DPOBS:QUAL	2:0:0:0:6.29893	2:0:0:0:0.941283	2:0:2:0:0.175574
CCAGCGAAGCCCAACC-1	SC1	12.1002	OBS:POBS:DOBS:DPOBS:QUAL	2:0:0:0:0.234951	2:1:1:1:12.1002	2:0:1:0:0.0392399
CCAGCGAGTCGCTTTC-1	SC2	51.8781	OBS:POBS:DOBS:DPOBS:QUAL	3:0:0:0:2.24641e-05	3:0:0:0:5.71813e-06	3:3:3:3:51.8781
CCATGTCGTCTTCGTC-1	SC2	51.8781	OBS:POBS:DOBS:DPOBS:QUAL	3:0:0:0:2.24641e-05	3:0:0:0:5.71813e-06	3:3:3:3:51.8781
CCATTCGAGTCCAGGA-1	SC1	12.1002	OBS:POBS:DOBS:DPOBS:QUAL	2:0:0:0:0.234951	2:1:1:1:12.1002	2:0:1:0:0.0392399
CCATTCGGTGCTTCTC-1	normal	3.46787	OBS:POBS:DOBS:DPOBS:QUAL	0:0:0:0:3.46787	0:0:0:0:0.655015	0:0:0:0:1.61151
CCATTCGTCTGGCGAC-1	SC2	10.2243	OBS:POBS:DOBS:DPOBS:QUAL	2:0:0:0:0.341859	2:0:0:0:0.0844986	2:1:2:1:10.2243
CCCAATCCATTACGAC-1	SC2	51.8781	OBS:POBS:DOBS:DPOBS:QUAL	3:0:0:0:2.24641e-05	3:0:0:0:5.71813e-06	3:3:3:3:51.8781
CCCAATCGTCCAGTAT-1	normal	3.46787	OBS:POBS:DOBS:DPOBS:QUAL	0:0:0:0:3.46787	0:0:0:0:0.655015	0:0:0:0:1.61151
CCCAATCTCGGGAGTA-1	SC1	12.1002	OBS:POBS:DOBS:DPOBS:QUAL	2:0:0:0:0.234951	2:1:1:1:12.1002	2:0:1:0:0.0392399
CCCTCCTAGACCCACC-1	SC2	51.8781	OBS:POBS:DOBS:DPOBS:QUAL	3:0:0:0:2.24641e-05	3:0:0:0:5.71813e-06	3:3:3:3:51.8781
CCCTCCTAGCTAAGAT-1	normal	3.46787	OBS:POBS:DOBS:DPOBS:QUAL	0:0:0:0:3.46787	0:0:0:0:0.655015	0:0:0:0:1.61151
CCCTCCTCAAGTCTGT-1	SC2	51.8781	OBS:POBS:DOBS:DPOBS:QUAL	3:0:0:0:2.24641e-05	3:0:0:0:5.71813e-06	3:3:3:3:51.8781
CCGGGATGTCCATGAT-1	normal	6.29893	OBS:POBS:DOBS:DPOBS:QUAL	2:0:0:0:6.29893	2:0:0:0:0.941283	2:0:2:0:0.175574
CCGGTAGGTGACAAAT-1	SC1	12.6818	OBS:POBS:DOBS:DPOBS:QUAL	4:0:0:0:0.23694	4:1:1:1:12.6818	4:0:3:0:0.00361812
CCGTACTCACTACAGT-1	normal	3.46787	OBS:POBS:DOBS:DPOBS:QUAL	0:0:0:0:3.46787	0:0:0:0:0.655015	0:0:0:0:1.61151
CCGTACTTCTTAACCT-1	SC2	51.8781	OBS:POBS:DOBS:DPOBS:QUAL	3:0:0:0:2.24641e-05	3:0:0:0:5.71813e-06	3:3:3:3:51.8781
CCGTGGAAGGACATTA-1	normal	6.29893	OBS:POBS:DOBS:DPOBS:QUAL	2:0:0:0:6.29893	2:0:0:0:0.941283	2:0:2:0:0.175574
CCGTTCAGTTCCACGG-1	SC2	33.4291	OBS:POBS:DOBS:DPOBS:QUAL	2:0:0:0:0.00157207	2:0:0:0:0.000400108	2:2:2:2:33.4291
CCTAAAGCAAGCCGCT-1	SC2	51.8781	OBS:POBS:DOBS:DPOBS:QUAL	3:0:0:0:2.24641e-05	3:0:0:0:5.71813e-06	3:3:3:3:51.8781
CCTAAAGTCCGATATG-1	normal	3.46787	OBS:POBS:DOBS:DPOBS:QUAL	0:0:0:0:3.46787	0:0:0:0:0.655015	0:0:0:0:1.61151
CCTACACAGGCACATG-1	normal	6.29893	OBS:POBS:DOBS:DPOBS:QUAL	2:0:0:0:6.29893	2:0:0:0:0.941283	2:0:2:0:0.175574
CCTACACTCTGAGTGT-1	SC2	51.8781	OBS:POBS:DOBS:DPOBS:QUAL	3:0:0:0:2.24641e-05	3:0:0:0:5.71813e-06	3:3:3:3:51.8781
CCTATTAAGAGGTTAT-1	normal	3.46787	OBS:POBS:DOBS:DPOBS:QUAL	0:0:0:0:3.46787	0:0:0:0:0.655015	0:0:0:0:1.61151
CCTATTAAGCGTTCCG-1	normal	3.46787	OBS:POBS:DOBS:DPOBS:QUAL	0:0:0:0:3.46787	0:0:0:0:0.655015	0:0:0:0:1.61151
CCTATTAGTAAGGATT-1	SC2	51.8781	OBS:POBS:DOBS:DPOBS:QUAL	3:0:0:0:2.24641e-05	3:0:0:0:5.71813e-06	3:3:3:3:51.8781
CCTATTATCTTTAGGG-1	normal	3.46787	OBS:POBS:DOBS:DPOBS:QUAL	0:0:0:0:3.46787	0:0:0:0:0.655015	0:0:0:0:1.61151
CCTCTGAGTGAAGGCT-1	SC2	33.4291	OBS:POBS:DOBS:DPOBS:QUAL	2:0:0:0:0.00157207	2:0:0:0:0.000400108	2:2:2:2:33.4291
CCTTACGGTCCCTACT-1	SC2	51.8781	OBS:POBS:DOBS:DPOBS:QUAL	3:0:0:0:2.24641e-05	3:0:0:0:5.71813e-06	3:3:3:3:51.8781
CCTTCGAGTGGTTTCA-1	normal	6.29893	OBS:POBS:DOBS:DPOBS:QUAL	2:0:0:0:6.29893	2:0:0:0:0.941283	2:0:2:0:0.175574
CCTTTCTTCACTCTTA-1	normal	6.29893	OBS:POBS:DOBS:DPOBS:QUAL	2:0:0:0:6.29893	2:0:0:0:0.941283	2:0:2:0:0.175574
CGAACATAGTGCGATG-1	SC1	12.1002	OBS:POBS:DOBS:DPOBS:QUAL	2:0:0:0:0.234951	2:1:1:1:12.1002	2:0:1:0:0.0392399
CGAACATCATGCTGGC-1	normal	6.29893	OBS:POBS:DOBS:DPOBS:QUAL	2:0:0:0:6.29893	2:0:0:0:0.941283	2:0:2:0:0.175574
CGAACATTCATGCATG-1	SC2	51.8781	OBS:POBS:DOBS:DPOBS:QUAL	3:0:0:0:2.24641e-05	3:0:0:0:5.71813e-06	3:3:3:3:51.8781
CGAATGTAGACTTGAA-1	normal	3.46787	OBS:POBS:DOBS:DPOBS:QUAL	0:0:0:0:3.46787	0:0:0:0:0.655015	0:0:0:0:1.61151
CGAATGTAGATGAGAG-1	SC2	10.2243	OBS:POBS:DOBS:DPOBS:QUAL	2:0:0:0:0.341859	2:0:0:0:0.0844986	2:1:2:1:10.2243
CGACCTTAGCGTCAAG-1	normal	6.29893	OBS:POBS:DOBS:DPOBS:QUAL	2:0:0:0:6.29893	2:0:0:0:0.941283	2:0:2:0:0.175574
CGACTTCAGTCTTGCA-1	normal	6.29893	OBS:POBS:DOBS:DPOBS:QUAL	2:0:0:0:6.29893	2:0:0:0:0.941283	2:0:2:0:0.175574
CGAGCACAGATGGCGT-1	normal	6.29893	OBS:POBS:DOBS:DPOBS:QUAL	2:0:0:0:6.29893	2:0:0:0:0.941283	2:0:2:0:0.175574
CGAGCCAAGTGGCACA-1	SC1	12.1002	OBS:POBS:DOBS:DPOBS:QUAL	2:0:0:0:0.234951	2:1:1:1:12.1002	2:0:1:0:0.0392399
CGAGCCAGTCCTCTTG-1	normal	6.29893	OBS:POBS:DOBS:DPOBS:QUAL	2:0:0:0:6.29893	2:0:0:0:0.941283	2:0:2:0:0.175574
CGATGGCGTGCATCTA-1	normal	6.29893	OBS:POBS:DOBS:DPOBS:QUAL	2:0:0:0:6.29893	2:0:0:0:0.941283	2:0:2:0:0.175574
CGATTGAAGGATATAC-1	SC2	51.8781	OBS:POBS:DOBS:DPOBS:QUAL	3:0:0:0:2.24641e-05	3:0:0:0:5.71813e-06	3:3:3:3:51.8781
CGATTGACAGCCAATT-1	SC2	51.8781	OBS:POBS:DOBS:DPOBS:QUAL	3:0:0:0:2.24641e-05	3:0:0:0:5.71813e-06	3:3:3:3:51.8781
CGCGGTACAAGCCTAT-1	normal	4.08345	OBS:POBS:DOBS:DPOBS:QUAL	1:0:0:0:4.08345	1:0:1:0:0.209123	1:0:0:0:1.82778
CGCGTTTAGCCGATTT-1	normal	3.46787	OBS:POBS:DOBS:DPOBS:QUAL	0:0:0:0:3.46787	0:0:0:0:0.655015	0:0:0:0:1.61151
CGCGTTTAGTCCAGGA-1	SC2	10.2243	OBS:POBS:DOBS:DPOBS:QUAL	2:0:0:0:0.341859	2:0:0:0:0.0844986	2:1:2:1:10.2243
CGCGTTTAGTGTTAGA-1	normal	3.46787	OBS:POBS:DOBS:DPOBS:QUAL	0:0:0:0:3.46787	0:0:0:0:0.655015	0:0:0:0:1.61151
CGCGTTTCAGGGTTAG-1	SC2	51.8781	OBS:POBS:DOBS:DPOBS:QUAL	3:0:0:0:2.24641e-05	3:0:0:0:5.71813e-06	3:3:3:3:51.8781
CGCTGGAGTAACGCGA-1	normal	3.46787	OBS:POBS:DOBS:DPOBS:QUAL	0:0:0:0:3.46787	0:0:0:0:0.655015	0:0:0:0:1.61151
CGCTTCACAAAGTCAA-1	normal	3.46787	OBS:POBS:DOBS:DPOBS:QUAL	0:0:0:0:3.46787	0:0:0:0:0.655015	0:0:0:0:1.61151
CGCTTCACAAGACGTG-1	normal	6.86329	OBS:POBS:DOBS:DPOBS:QUAL	4:0:0:0:6.86329	4:0:0:0:0.980694	4:0:4:0:0.0164218
CGGACACGTCACTGGC-1	normal	3.46787	OBS:POBS:DOBS:DPOBS:QUAL	0:0:0:0:3.46787	0:0:0:0:0.655015	0:0:0:0:1.61151
CGGAGCTCAGGGAGAG-1	SC2	10.2243	OBS:POBS:DOBS:DPOBS:QUAL	2:0:0:0:0.341859	2:0:0:0:0.0844986	2:1:2:1:10.2243
CGGAGCTGTGCAACGA-1	normal	6.29893	OBS:POBS:DOBS:DPOBS:QUAL	2:0:0:0:6.29893	2:0:0:0:0.941283	2:0:2:0:0.175574
CGGAGCTTCAACACCA-1	normal	6.29893	OBS:POBS:DOBS:DPOBS:QUAL	2:0:0:0:6.29893	2:0:0:0:0.941283	2:0:2:0:0.175574
CGGAGTCAGAGACTAT-1	normal	6.29893	OBS:POBS:DOBS:DPOBS:QUAL	2:0:0:0:6.29893	2:0:0:0:0.941283	2:0:2:0:0.175574
CGGCTAGTCAGCGATT-1	normal	3.46787	OBS:POBS:DOBS:DPOBS:QUAL	0:0:0:0:3.46787	0:0:0:0:0.655015	0:0:0:0:1.61151
CGTAGCGGTGATGATA-1	normal	6.29893	OBS:POBS:DOBS:DPOBS:QUAL	2:0:0:0:6.29893	2:0:0:0:0.941283	2:0:2:0:0.175574
CGTAGGCAGTGTGGCA-1	SC2	51.8781	OBS:POBS:DOBS:DPOBS:QUAL	3:0:0:0:2.24641e-05	3:0:0:0:5.71813e-06	3:3:3:3:51.8781
CGTCAGGGTTGCGTTA-1	SC2	10.2243	OBS:POBS:DOBS:DPOBS:QUAL	2:0:0:0:0.341859	2:0:0:0:0.0844986	2:1:2:1:10.2243
CGTGAGCTCGTTTATC-1	SC2	51.8781	OBS:POBS:DOBS:DPOBS:QUAL	3:0:0:0:2.24641e-05	3:0:0:0:5.71813e-06	3:3:3:3:51.8781
CGTGTAAAGGCCGAAT-1	normal	3.46787	OBS:POBS:DOBS:DPOBS:QUAL	0:0:0:0:3.46787	0:0:0:0:0.655015	0:0:0:0:1.61151
CGTGTCTGTTGTGGCC-1	normal	6.29893	OBS:POBS:DOBS:DPOBS:QUAL	2:0:0:0:6.29893	2:0:0:0:0.941283	2:0:2:0:0.175574
CGTTCTGCAGCTGCTG-1	SC2	51.8781	OBS:POBS:DOBS:DPOBS:QUAL	3:0:0:0:2.24641e-05	3:0:0:0:5.71813e-06	3:3:3:3:51.8781
CGTTGGGTCCCACTTG-1	SC2	51.8781	OBS:POBS:DOBS:DPOBS:QUAL	3:0:0:0:2.24641e-05	3:0:0:0:5.71813e-06	3:3:3:3:51.8781
CTAACTTTCGGAAACG-1	normal	5.25179	OBS:POBS:DOBS:DPOBS:QUAL	1:0:0:0:5.25179	1:0:0:0:0.854375	1:0:1:0:0.554334
CTAATGGGTGGTCTCG-1	normal	6.29893	OBS:POBS:DOBS:DPOBS:QUAL	2:0:0:0:6.29893	2:0:0:0:0.941283	2:0:2:0:0.175574
CTAATGGTCGAGAGCA-1	SC1	12.1002	OBS:POBS:DOBS:DPOBS:QUAL	2:0:0:0:0.234951	2:1:1:1:12.1002	2:0:1:0:0.0392399
CTACACCAGGAATTAC-1	SC2	51.8781	OBS:POBS:DOBS:DPOBS:QUAL	3:0:0:0:2.24641e-05	3:0:0:0:5.71813e-06	3:3:3:3:51.8781
CTACACCGTGTTCTTT-1	SC2	10.2243	OBS:POBS:DOBS:DPOBS:QUAL	2:0:0:0:0.341859	2:0:0:0:0.0844986	2:1:2:1:10.2243
CTACATTTCGCTTGTC-1	SC2	33.4291	OBS:POBS:DOBS:DPOBS:QUAL	2:0:0:0:0.00157207	2:0:0:0:0.000400108	2:2:2:2:33.4291
CTACATTTCTTGAGAC-1	SC2	51.8781	OBS:POBS:DOBS:DPOBS:QUAL	3:0:0:0:2.24641e-05	3:0:0:0:5.71813e-06	3:3:3:3:51.8781
CTACGTCCAAAGCGGT-1	SC1	12.1002	OBS:POBS:DOBS:DPOBS:QUAL	2:0:0:0:0.234951	2:1:1:1:12.1002	2:0:1:0:0.0392399
CTAGAGTCATGACGGA-1	normal	3.46787	OBS:POBS:DOBS:DPOBS:QUAL	0:0:0:0:3.46787	0:0:0:0:0.655015	0:0:0:0:1.61151
CTAGTGACACTAAGTC-1	SC2	10.2243	OBS:POBS:DOBS:DPOBS:QUAL	2:0:0:0:0.341859	2:0:0:0:0.0844986	2:1:2:1:10.2243
CTCACACAGCCACCTG-1	normal	3.46787	OBS:POBS:DOBS:DPOBS:QUAL	0:0:0:0:3.46787	0:0:0:0:0.655015	0:0:0:0:1.61151
CTCACACAGGTAAACT-1	SC2	51.8781	OBS:POBS:DOBS:DPOBS:QUAL	3:0:0:0:2.24641e-05	3:0:0:0:5.71813e-06	3:3:3:3:51.8781
CTCACACCAAAGTCAA-1	normal	6.29893	OBS:POBS:DOBS:DPOBS:QUAL	2:0:0:0:6.29893	2:0:0:0:0.941283	2:0:2:0:0.175574
CTCATTAAGGCGTACA-1	SC1	12.1002	OBS:POBS:DOBS:DPOBS:QUAL	2:0:0:0:0.234951	2:1:1:1:12.1002	2:0:1:0:0.0392399
CTCCTAGAGCATGGCA-1	normal	6.29893	OBS:POBS:DOBS:DPOBS:QUAL	2:0:0:0:6.29893	2:0:0:0:0.941283	2:0:2:0:0.175574
CTCGAAACATAGTAAG-1	SC2	51.8781	OBS:POBS:DOBS:DPOBS:QUAL	3:0:0:0:2.24641e-05	3:0:0:0:5.71813e-06	3:3:3:3:51.8781
CTCGGAGTCCAAATGC-1	SC2	10.2243	OBS:POBS:DOBS:DPOBS:QUAL	2:0:0:0:0.341859	2:0:0:0:0.0844986	2:1:2:1:10.2243
CTCGGGATCATGCATG-1	SC2	51.8781	OBS:POBS:DOBS:DPOBS:QUAL	3:0:0:0:2.24641e-05	3:0:0:0:5.71813e-06	3:3:3:3:51.8781
CTCTAATCACGAAGCA-1	SC2	51.8781	OBS:POBS:DOBS:DPOBS:QUAL	3:0:0:0:2.24641e-05	3:0:0:0:5.71813e-06	3:3:3:3:51.8781
CTCTAATTCCGCTGTT-1	SC1	10.9326	OBS:POBS:DOBS:DPOBS:QUAL	1:0:0:0:0.23006	1:1:1:1:10.9326	1:0:0:0:0.128169
CTCTAATTCCTTCAAT-1	normal	3.46787	OBS:POBS:DOBS:DPOBS:QUAL	0:0:0:0:3.46787	0:0:0:0:0.655015	0:0:0:0:1.61151
CTCTACGAGTCCTCCT-1	SC2	10.2243	OBS:POBS:DOBS:DPOBS:QUAL	2:0:0:0:0.341859	2:0:0:0:0.0844986	2:1:2:1:10.2243
CTCTACGCAAGCTGTT-1	normal	6.29893	OBS:POBS:DOBS:DPOBS:QUAL	2:0:0:0:6.29893	2:0:0:0:0.941283	2:0:2:0:0.175574
CTCTGGTCATTGTGCA-1	normal	3.46787	OBS:POBS:DOBS:DPOBS:QUAL	0:0:0:0:3.46787	0:0:0:0:0.655015	0:0:0:0:1.61151
CTGAAACCAGACGCAA-1	SC2	51.8781	OBS:POBS:DOBS:DPOBS:QUAL	3:0:0:0:2.24641e-05	3:0:0:0:5.71813e-06	3:3:3:3:51.8781
CTGATAGAGCATCATC-1	SC2	51.8781	OBS:POBS:DOBS:DPOBS:QUAL	3:0:0:0:2.24641e-05	3:0:0:0:5.71813e-06	3:3:3:3:51.8781
CTGATAGTCGACCAGC-1	SC2	51.8781	OBS:POBS:DOBS:DPOBS:QUAL	3:0:0:0:2.24641e-05	3:0:0:0:5.71813e-06	3:3:3:3:51.8781
CTGATCCAGCTTTGGT-1	normal	3.46787	OBS:POBS:DOBS:DPOBS:QUAL	0:0:0:0:3.46787	0:0:0:0:0.655015	0:0:0:0:1.61151
CTGCCTACAAGTCTAC-1	SC2	51.8781	OBS:POBS:DOBS:DPOBS:QUAL	3:0:0:0:2.24641e-05	3:0:0:0:5.71813e-06	3:3:3:3:51.8781
CTGCCTAGTGCCTGCA-1	normal	3.46787	OBS:POBS:DOBS:DPOBS:QUAL	0:0:0:0:3.46787	0:0:0:0:0.655015	0:0:0:0:1.61151
CTGCCTAGTGCGCTTG-1	normal	3.46787	OBS:POBS:DOBS:DPOBS:QUAL	0:0:0:0:3.46787	0:0:0:0:0.655015	0:0:0:0:1.61151
CTGCGGAAGCCGATTT-1	SC2	51.8781	OBS:POBS:DOBS:DPOBS:QUAL	3:0:0:0:2.24641e-05	3:0:0:0:5.71813e-06	3:3:3:3:51.8781
CTGCGGACAAACCTAC-1	normal	3.46787	OBS:POBS:DOBS:DPOBS:QUAL	0:0:0:0:3.46787	0:0:0:0:0.655015	0:0:0:0:1.61151
CTGCGGATCTCACATT-1	normal	6.29893	OBS:POBS:DOBS:DPOBS:QUAL	2:0:0:0:6.29893	2:0:0:0:0.941283	2:0:2:0:0.175574
CTGCTGTCACGGTAGA-1	SC2	51.8781	OBS:POBS:DOBS:DPOBS:QUAL	3:0:0:0:2.24641e-05	3:0:0:0:5.71813e-06	3:3:3:3:51.8781
CTGGTCTTCCTTGACC-1	SC2	51.8781	OBS:POBS:DOBS:DPOBS:QUAL	3:0:0:0:2.24641e-05	3:0:0:0:5.71813e-06	3:3:3:3:51.8781
CTGTGCTAGCTAAACA-1	SC2	51.8781	OBS:POBS:DOBS:DPOBS:QUAL	3:0:0:0:2.24641e-05	3:0:0:0:5.71813e-06	3:3:3:3:51.8781
CTGTGCTCAAGCGATG-1	normal	6.29893	OBS:POBS:DOBS:DPOBS:QUAL	2:0:0:0:6.29893	2:0:0:0:0.941283	2:0:2:0:0.175574
CTGTGCTCAGGATTGG-1	normal	6.29893	OBS:POBS:DOBS:DPOBS:QUAL	2:0:0:0:6.29893	2:0:0:0:0.941283	2:0:2:0:0.175574
CTGTTTACATAAGACA-1	normal	3.46787	OBS:POBS:DOBS:DPOBS:QUAL	0:0:0:0:3.46787	0:0:0:0:0.655015	0:0:0:0:1.61151
CTTACCGCACTTAAGC-1	SC2	51.8781	OBS:POBS:DOBS:DPOBS:QUAL	3:0:0:0:2.24641e-05	3:0:0:0:5.71813e-06	3:3:3:3:51.8781
CTTACCGGTGTGAAAT-1	normal	3.46787	OBS:POBS:DOBS:DPOBS:QUAL	0:0:0:0:3.46787	0:0:0:0:0.655015	0:0:0:0:1.61151
CTTAGGAAGTCCCACG-1	SC2	51.8781	OBS:POBS:DOBS:DPOBS:QUAL	3:0:0:0:2.24641e-05	3:0:0:0:5.71813e-06	3:3:3:3:51.8781
CTTCTCTAGCCACTAT-1	normal	3.46787	OBS:POBS:DOBS:DPOBS:QUAL	0:0:0:0:3.46787	0:0:0:0:0.655015	0:0:0:0:1.61151
CTTCTCTTCATGTGGT-1	SC2	51.8781	OBS:POBS:DOBS:DPOBS:QUAL	3:0:0:0:2.24641e-05	3:0:0:0:5.71813e-06	3:3:3:3:51.8781
CTTGGCTAGCCGTCGT-1	SC2	51.8781	OBS:POBS:DOBS:DPOBS:QUAL	3:0:0:0:2.24641e-05	3:0:0:0:5.71813e-06	3:3:3:3:51.8781
CTTTGCGTCTATCCCG-1	normal	3.46787	OBS:POBS:DOBS:DPOBS:QUAL	0:0:0:0:3.46787	0:0:0:0:0.655015	0:0:0:0:1.61151
GAAATGATCACCGGGT-1	SC1	12.1002	OBS:POBS:DOBS:DPOBS:QUAL	2:0:0:0:0.234951	2:1:1:1:12.1002	2:0:1:0:0.0392399
GAAATGATCTACTATC-1	SC2	33.4291	OBS:POBS:DOBS:DPOBS:QUAL	2:0:0:0:0.00157207	2:0:0:0:0.000400108	2:2:2:2:33.4291
GAACATCAGCATGGCA-1	normal	4.08345	OBS:POBS:DOBS:DPOBS:QUAL	1:0:0:0:4.08345	1:0:1:0:0.209123	1:0:0:0:1.82778
GAACCTAAGCCAGAAC-1	normal	3.46787	OBS:POBS:DOBS:DPOBS:QUAL	0:0:0:0:3.46787	0:0:0:0:0.655015	0:0:0:0:1.61151
GAACGGAAGACCGGAT-1	normal	3.46787	OBS:POBS:DOBS:DPOBS:QUAL	0:0:0:0:3.46787	0:0:0:0:0.655015	0:0:0:0:1.61151
GAATAAGAGGATGGAA-1	normal	6.29893	OBS:POBS:DOBS:DPOBS:QUAL	2:0:0:0:6.29893	2:0:0:0:0.941283	2:0:2:0:0.175574
GAATAAGAGTCGCCGT-1	normal	4.08345	OBS:POBS:DOBS:DPOBS:QUAL	1:0:0:0:4.08345	1:0:1:0:0.209123	1:0:0:0:1.82778
GAATAAGTCATTGCCC-1	normal	3.46787	OBS:POBS:DOBS:DPOBS:QUAL	0:0:0:0:3.46787	0:0:0:0:0.655015	0:0:0:0:1.61151
GACACGCTCGTACCGG-1	normal	6.29893	OBS:POBS:DOBS:DPOBS:QUAL	2:0:0:0:6.29893	2:0:0:0:0.941283	2:0:2:0:0.175574
GACAGAGGTCAAGCGA-1	normal	6.29893	OBS:POBS:DOBS:DPOBS:QUAL	2:0:0:0:6.29893	2:0:0:0:0.941283	2:0:2:0:0.175574
GACAGAGGTCGGATCC-1	normal	3.46787	OBS:POBS:DOBS:DPOBS:QUAL	0:0:0:0:3.46787	0:0:0:0:0.655015	0:0:0:0:1.61151
GACAGAGTCTGTCTAT-1	normal	3.46787	OBS:POBS:DOBS:DPOBS:QUAL	0:0:0:0:3.46787	0:0:0:0:0.655015	0:0:0:0:1.61151
GACCAATAGTGTTTGC-1	SC2	51.8781	OBS:POBS:DOBS:DPOBS:QUAL	3:0:0:0:2.24641e-05	3:0:0:0:5.71813e-06	3:3:3:3:51.8781
GACCTGGGTGTGTGCC-1	normal	3.46787	OBS:POBS:DOBS:DPOBS:QUAL	0:0:0:0:3.46787	0:0:0:0:0.655015	0:0:0:0:1.61151
GACGTTAGTGGTCTCG-1	normal	6.29893	OBS:POBS:DOBS:DPOBS:QUAL	2:0:0:0:6.29893	2:0:0:0:0.941283	2:0:2:0:0.175574
GACTACACACCCAGTG-1	SC2	10.2243	OBS:POBS:DOBS:DPOBS:QUAL	2:0:0:0:0.341859	2:0:0:0:0.0844986	2:1:2:1:10.2243
GACTACAGTTACAGAA-1	SC2	51.8781	OBS:POBS:DOBS:DPOBS:QUAL	3:0:0:0:2.24641e-05	3:0:0:0:5.71813e-06	3:3:3:3:51.8781
GAGCAGATCTATGTGG-1	SC2	33.4291	OBS:POBS:DOBS:DPOBS:QUAL	2:0:0:0:0.00157207	2:0:0:0:0.000400108	2:2:2:2:33.4291
GAGGTGACAGCATACT-1	SC2	51.8781	OBS:POBS:DOBS:DPOBS:QUAL	3:0:0:0:2.24641e-05	3:0:0:0:5.71813e-06	3:3:3:3:51.8781
GAGTCCGAGGAGTCTG-1	normal	3.46787	OBS:POBS:DOBS:DPOBS:QUAL	0:0:0:0:3.46787	0:0:0:0:0.655015	0:0:0:0:1.61151
GAGTCCGCATCGACGC-1	normal	6.29893	OBS:POBS:DOBS:DPOBS:QUAL	2:0:0:0:6.29893	2:0:0:0:0.941283	2:0:2:0:0.175574
GAGTCCGGTGGCGAAT-1	normal	3.46787	OBS:POBS:DOBS:DPOBS:QUAL	0:0:0:0:3.46787	0:0:0:0:0.655015	0:0:0:0:1.61151
GATCAGTGTCGCTTCT-1	normal	6.72149	OBS:POBS:DOBS:DPOBS:QUAL	3:0:0:0:6.72149	3:0:0:0:0.971236	3:0:3:0:0.0539578
GATCGATTCCACTCCA-1	SC2	33.4291	OBS:POBS:DOBS:DPOBS:QUAL	2:0:0:0:0.00157207	2:0:0:0:0.000400108	2:2:2:2:33.4291
GATCGCGCATTCTCAT-1	normal	6.29893	OBS:POBS:DOBS:DPOBS:QUAL	2:0:0:0:6.29893	2:0:0:0:0.941283	2:0:2:0:0.175574
GATCTAGAGGTAGCTG-1	SC2	51.8781	OBS:POBS:DOBS:DPOBS:QUAL	3:0:0:0:2.24641e-05	3:0:0:0:5.71813e-06	3:3:3:3:51.8781
GATCTAGTCATTCACT-1	normal	6.29893	OBS:POBS:DOBS:DPOBS:QUAL	2:0:0:0:6.29893	2:0:0:0:0.941283	2:0:2:0:0.175574
GATGAAAAGAACAATC-1	normal	6.29893	OBS:POBS:DOBS:DPOBS:QUAL	2:0:0:0:6.29893	2:0:0:0:0.941283	2:0:2:0:0.175574
GATGAGGAGCTGCCCA-1	SC2	33.4291	OBS:POBS:DOBS:DPOBS:QUAL	2:0:0:0:0.00157207	2:0:0:0:0.000400108	2:2:2:2:33.4291
GATGAGGCATGCTAGT-1	normal	3.46787	OBS:POBS:DOBS:DPOBS:QUAL	0:0:0:0:3.46787	0:0:0:0:0.655015	0:0:0:0:1.61151
GATGAGGGTAGCTCCG-1	SC2	33.4291	OBS:POBS:DOBS:DPOBS:QUAL	2:0:0:0:0.00157207	2:0:0:0:0.000400108	2:2:2:2:33.4291
GATGAGGTCGCAAACT-1	SC2	10.2243	OBS:POBS:DOBS:DPOBS:QUAL	2:0:0:0:0.341859	2:0:0:0:0.0844986	2:1:2:1:10.2243
GATGCTAAGTATCGAA-1	SC2	33.4291	OBS:POBS:DOBS:DPOBS:QUAL	2:0:0:0:0.00157207	2:0:0:0:0.000400108	2:2:2:2:33.4291
GATGCTAGTGGACGAT-1	SC2	51.8781	OBS:POBS:DOBS:DPOBS:QUAL	3:0:0:0:2.24641e-05	3:0:0:0:5.71813e-06	3:3:3:3:51.8781
GATGCTATCAAGGTAA-1	normal	3.46787	OBS:POBS:DOBS:DPOBS:QUAL	0:0:0:0:3.46787	0:0:0:0:0.655015	0:0:0:0:1.61151
GCAAACTGTTTAGGAA-1	SC2	23.0782	OBS:POBS:DOBS:DPOBS:QUAL	4:0:0:0:0.0170737	4:0:0:0:0.00433967	4:2:4:2:23.0782
GCACATATCTAACTGG-1	normal	3.46787	OBS:POBS:DOBS:DPOBS:QUAL	0:0:0:0:3.46787	0:0:0:0:0.655015	0:0:0:0:1.61151
GCACTCTTCTAACCGA-1	SC2	10.2243	OBS:POBS:DOBS:DPOBS:QUAL	2:0:0:0:0.341859	2:0:0:0:0.0844986	2:1:2:1:10.2243
GCATACAGTACTCAAC-1	normal	3.46787	OBS:POBS:DOBS:DPOBS:QUAL	0:0:0:0:3.46787	0:0:0:0:0.655015	0:0:0:0:1.61151
GCATACATCAATAAGG-1	normal	4.08345	OBS:POBS:DOBS:DPOBS:QUAL	1:0:0:0:4.08345	1:0:1:0:0.209123	1:0:0:0:1.82778
GCATGATGTCCTAGCG-1	SC2	33.4291	OBS:POBS:DOBS:DPOBS:QUAL	2:0:0:0:0.00157207	2:0:0:0:0.000400108	2:2:2:2:33.4291
GCATGTAAGCCGGTAA-1	normal	6.29893	OBS:POBS:DOBS:DPOBS:QUAL	2:0:0:0:6.29893	2:0:0:0:0.941283	2:0:2:0:0.175574
GCATGTAAGGTGCAAC-1	SC2	51.8781	OBS:POBS:DOBS:DPOBS:QUAL	3:0:0:0:2.24641e-05	3:0:0:0:5.71813e-06	3:3:3:3:51.8781
GCATGTATCCCAACGG-1	SC1	12.1002	OBS:POBS:DOBS:DPOBS:QUAL	2:0:0:0:0.234951	2:1:1:1:12.1002	2:0:1:0:0.0392399
GCCAAATAGAGCAATT-1	normal	3.46787	OBS:POBS:DOBS:DPOBS:QUAL	0:0:0:0:3.46787	0:0:0:0:0.655015	0:0:0:0:1.61151
GCGACCAAGGATTCGG-1	normal	6.29893	OBS:POBS:DOBS:DPOBS:QUAL	2:0:0:0:6.29893	2:0:0:0:0.941283	2:0:2:0:0.175574
GCGACCACATTAGGCT-1	normal	6.29893	OBS:POBS:DOBS:DPOBS:QUAL	2:0:0:0:6.29893	2:0:0:0:0.941283	2:0:2:0:0.175574
GCGAGAAAGAAACCGC-1	normal	3.46787	OBS:POBS:DOBS:DPOBS:QUAL	0:0:0:0:3.46787	0:0:0:0:0.655015	0:0:0:0:1.61151
GCGAGAAAGTTCGCGC-1	normal	3.46787	OBS:POBS:DOBS:DPOBS:QUAL	0:0:0:0:3.46787	0:0:0:0:0.655015	0:0:0:0:1.61151
GCGCAACTCCTCAACC-1	SC1	12.1002	OBS:POBS:DOBS:DPOBS:QUAL	2:0:0:0:0.234951	2:1:1:1:12.1002	2:0:1:0:0.0392399
GCGCAGTGTCGAGATG-1	normal	9.42426	OBS:POBS:DOBS:DPOBS:QUAL	3:0:0:0:9.42426	3:0:1:0:0.30737	3:0:2:0:0.203824
GCGGGTTGTGGTACAG-1	normal	3.46787	OBS:POBS:DOBS:DPOBS:QUAL	0:0:0:0:3.46787	0:0:0:0:0.655015	0:0:0:0:1.61151
GCTCTGTCATACGCTA-1	normal	4.08345	OBS:POBS:DOBS:DPOBS:QUAL	1:0:0:0:4.08345	1:0:1:0:0.209123	1:0:0:0:1.82778
GCTGCAGCAAGTAGTA-1	normal	6.29893	OBS:POBS:DOBS:DPOBS:QUAL	2:0:0:0:6.29893	2:0:0:0:0.941283	2:0:2:0:0.175574
GCTGCGACAGGCTCAC-1	SC2	51.8781	OBS:POBS:DOBS:DPOBS:QUAL	3:0:0:0:2.24641e-05	3:0:0:0:5.71813e-06	3:3:3:3:51.8781
GCTGGGTTCAGCGACC-1	normal	3.46787	OBS:POBS:DOBS:DPOBS:QUAL	0:0:0:0:3.46787	0:0:0:0:0.655015	0:0:0:0:1.61151
GCTTGAAAGACTAGGC-1	SC2	33.4291	OBS:POBS:DOBS:DPOBS:QUAL	2:0:0:0:0.00157207	2:0:0:0:0.000400108	2:2:2:2:33.4291
GGAAAGCAGCTTTGGT-1	SC2	51.8781	OBS:POBS:DOBS:DPOBS:QUAL	3:0:0:0:2.24641e-05	3:0:0:0:5.71813e-06	3:3:3:3:51.8781
GGAAAGCCAGATAATG-1	normal	6.29893	OBS:POBS:DOBS:DPOBS:QUAL	2:0:0:0:6.29893	2:0:0:0:0.941283	2:0:2:0:0.175574
GGAAAGCCAGTTTACG-1	SC2	33.4291	OBS:POBS:DOBS:DPOBS:QUAL	2:0:0:0:0.00157207	2:0:0:0:0.000400108	2:2:2:2:33.4291
GGAAAGCGTTGGAGGT-1	SC1	12.6818	OBS:POBS:DOBS:DPOBS:QUAL	4:0:0:0:0.23694	4:1:1:1:12.6818	4:0:3:0:0.00361812
GGAACTTAGTGGGCTA-1	SC2	33.4291	OBS:POBS:DOBS:DPOBS:QUAL	2:0:0:0:0.00157207	2:0:0:0:0.000400108	2:2:2:2:33.4291
GGAATAAAGTTGTCGT-1	normal	6.29893	OBS:POBS:DOBS:DPOBS:QUAL	2:0:0:0:6.29893	2:0:0:0:0.941283	2:0:2:0:0.175574
GGACAAGTCAGCGATT-1	normal	3.46787	OBS:POBS:DOBS:DPOBS:QUAL	0:0:0:0:3.46787	0:0:0:0:0.655015	0:0:0:0:1.61151
GGACAAGTCTCACATT-1	SC2	51.8781	OBS:POBS:DOBS:DPOBS:QUAL	3:0:0:0:2.24641e-05	3:0:0:0:5.71813e-06	3:3:3:3:51.8781
GGACAAGTCTGTGCAA-1	SC2	10.2243	OBS:POBS:DOBS:DPOBS:QUAL	2:0:0:0:0.341859	2:0:0:0:0.0844986	2:1:2:1:10.2243
GGACAGACAAAGAATC-1	SC1	12.1002	OBS:POBS:DOBS:DPOBS:QUAL	2:0:0:0:0.234951	2:1:1:1:12.1002	2:0:1:0:0.0392399
GGACAGATCGGACAAG-1	SC2	33.4291	OBS:POBS:DOBS:DPOBS:QUAL	2:0:0:0:0.00157207	2:0:0:0:0.000400108	2:2:2:2:33.4291
GGAGCAACAGCTGTTA-1	normal	6.29893	OBS:POBS:DOBS:DPOBS:QUAL	2:0:0:0:6.29893	2:0:0:0:0.941283	2:0:2:0:0.175574
GGAGCAAGTCGAATCT-1	normal	3.46787	OBS:POBS:DOBS:DPOBS:QUAL	0:0:0:0:3.46787	0:0:0:0:0.655015	0:0:0:0:1.61151
GGAGCAATCGCAGGCT-1	SC1	10.9326	OBS:POBS:DOBS:DPOBS:QUAL	1:0:0:0:0.23006	1:1:1:1:10.9326	1:0:0:0:0.128169
GGATTACCAGTGAGTG-1	SC2	51.8781	OBS:POBS:DOBS:DPOBS:QUAL	3:0:0:0:2.24641e-05	3:0:0:0:5.71813e-06	3:3:3:3:51.8781
GGCAATTAGCACACAG-1	SC2	10.2243	OBS:POBS:DOBS:DPOBS:QUAL	2:0:0:0:0.341859	2:0:0:0:0.0844986	2:1:2:1:10.2243
GGCAATTGTAGCTCCG-1	normal	6.29893	OBS:POBS:DOBS:DPOBS:QUAL	2:0:0:0:6.29893	2:0:0:0:0.941283	2:0:2:0:0.175574
GGCAATTTCACCCGAG-1	normal	3.46787	OBS:POBS:DOBS:DPOBS:QUAL	0:0:0:0:3.46787	0:0:0:0:0.655015	0:0:0:0:1.61151
GGCCGATTCTGCAAGT-1	SC1	12.1002	OBS:POBS:DOBS:DPOBS:QUAL	2:0:0:0:0.234951	2:1:1:1:12.1002	2:0:1:0:0.0392399
GGCGTGTGTCTTCAAG-1	normal	6.29893	OBS:POBS:DOBS:DPOBS:QUAL	2:0:0:0:6.29893	2:0:0:0:0.941283	2:0:2:0:0.175574
GGCTCGAGTATGAATG-1	SC1	10.9326	OBS:POBS:DOBS:DPOBS:QUAL	1:0:0:0:0.23006	1:1:1:1:10.9326	1:0:0:0:0.128169
GGCTCGATCTGTCCGT-1	normal	3.46787	OBS:POBS:DOBS:DPOBS:QUAL	0:0:0:0:3.46787	0:0:0:0:0.655015	0:0:0:0:1.61151
GGCTGGTGTACAGTGG-1	SC1	12.1002	OBS:POBS:DOBS:DPOBS:QUAL	2:0:0:0:0.234951	2:1:1:1:12.1002	2:0:1:0:0.0392399
GGGAATGAGGATGCGT-1	normal	3.46787	OBS:POBS:DOBS:DPOBS:QUAL	0:0:0:0:3.46787	0:0:0:0:0.655015	0:0:0:0:1.61151
GGGAATGCAATGGATA-1	normal	3.46787	OBS:POBS:DOBS:DPOBS:QUAL	0:0:0:0:3.46787	0:0:0:0:0.655015	0:0:0:0:1.61151
GGGAATGTCCGAAGAG-1	normal	6.29893	OBS:POBS:DOBS:DPOBS:QUAL	2:0:0:0:6.29893	2:0:0:0:0.941283	2:0:2:0:0.175574
GGGAGATTCAGCATGT-1	normal	3.46787	OBS:POBS:DOBS:DPOBS:QUAL	0:0:0:0:3.46787	0:0:0:0:0.655015	0:0:0:0:1.61151
GGGATGAGTGAGCGAT-1	SC2	51.8781	OBS:POBS:DOBS:DPOBS:QUAL	3:0:0:0:2.24641e-05	3:0:0:0:5.71813e-06	3:3:3:3:51.8781
GGGCACTAGGCATGGT-1	SC2	51.8781	OBS:POBS:DOBS:DPOBS:QUAL	3:0:0:0:2.24641e-05	3:0:0:0:5.71813e-06	3:3:3:3:51.8781
GGGCACTCACCGCTAG-1	normal	3.46787	OBS:POBS:DOBS:DPOBS:QUAL	0:0:0:0:3.46787	0:0:0:0:0.655015	0:0:0:0:1.61151
GGGTCTGTCATAGCAC-1	normal	6.29893	OBS:POBS:DOBS:DPOBS:QUAL	2:0:0:0:6.29893	2:0:0:0:0.941283	2:0:2:0:0.175574
GGTATTGTCAACCAAC-1	normal	3.46787	OBS:POBS:DOBS:DPOBS:QUAL	0:0:0:0:3.46787	0:0:0:0:0.655015	0:0:0:0:1.61151
GGTGCGTCAGGGTATG-1	SC2	51.8781	OBS:POBS:DOBS:DPOBS:QUAL	3:0:0:0:2.24641e-05	3:0:0:0:5.71813e-06	3:3:3:3:51.8781
GGTGTTACACTATCTT-1	normal	3.46787	OBS:POBS:DOBS:DPOBS:QUAL	0:0:0:0:3.46787	0:0:0:0:0.655015	0:0:0:0:1.61151
GGTGTTACAGCTTAAC-1	normal	3.46787	OBS:POBS:DOBS:DPOBS:QUAL	0:0:0:0:3.46787	0:0:0:0:0.655015	0:0:0:0:1.61151
GGTGTTAGTTCCATGA-1	SC1	12.1002	OBS:POBS:DOBS:DPOBS:QUAL	2:0:0:0:0.234951	2:1:1:1:12.1002	2:0:1:0:0.0392399
GGTGTTATCTCCAACC-1	normal	3.46787	OBS:POBS:DOBS:DPOBS:QUAL	0:0:0:0:3.46787	0:0:0:0:0.655015	0:0:0:0:1.61151
GTAACGTAGTTCGCGC-1	SC2	33.4291	OBS:POBS:DOBS:DPOBS:QUAL	2:0:0:0:0.00157207	2:0:0:0:0.000400108	2:2:2:2:33.4291
GTACTCCGTCTCAACA-1	SC2	51.8781	OBS:POBS:DOBS:DPOBS:QUAL	3:0:0:0:2.24641e-05	3:0:0:0:5.71813e-06	3:3:3:3:51.8781
GTACTCCTCAAACGGG-1	SC2	10.2243	OBS:POBS:DOBS:DPOBS:QUAL	2:0:0:0:0.341859	2:0:0:0:0.0844986	2:1:2:1:10.2243
GTACTCCTCTTCGAGA-1	normal	3.46787	OBS:POBS:DOBS:DPOBS:QUAL	0:0:0:0:3.46787	0:0:0:0:0.655015	0:0:0:0:1.61151
GTAGTCATCGGTGTTA-1	SC2	10.2243	OBS:POBS:DOBS:DPOBS:QUAL	2:0:0:0:0.341859	2:0:0:0:0.0844986	2:1:2:1:10.2243
GTATTCTCACCTGGTG-1	SC2	51.8781	OBS:POBS:DOBS:DPOBS:QUAL	3:0:0:0:2.24641e-05	3:0:0:0:5.71813e-06	3:3:3:3:51.8781
GTATTCTTCTACCAGA-1	normal	3.46787	OBS:POBS:DOBS:DPOBS:QUAL	0:0:0:0:3.46787	0:0:0:0:0.655015	0:0:0:0:1.61151
GTCAAGTAGGGTTTCT-1	SC2	51.8781	OBS:POBS:DOBS:DPOBS:QUAL	3:0:0:0:2.24641e-05	3:0:0:0:5.71813e-06	3:3:3:3:51.8781
GTCAAGTGTGATAAGT-1	normal	5.25179	OBS:POBS:DOBS:DPOBS:QUAL	1:0:0:0:5.25179	1:0:0:0:0.854375	1:0:1:0:0.554334
GTCACAAAGTGCGTGA-1	normal	3.46787	OBS:POBS:DOBS:DPOBS:QUAL	0:0:0:0:3.46787	0:0:0:0:0.655015	0:0:0:0:1.61151
GTCGGGTTCCCTTGTG-1	SC1	12.1002	OBS:POBS:DOBS:DPOBS:QUAL	2:0:0:0:0.234951	2:1:1:1:12.1002	2:0:1:0:0.0392399
GTCGTAAGTCCAGTTA-1	SC2	33.4291	OBS:POBS:DOBS:DPOBS:QUAL	2:0:0:0:0.00157207	2:0:0:0:0.000400108	2:2:2:2:33.4291
GTCGTAATCAGTACGT-1	SC1	12.1002	OBS:POBS:DOBS:DPOBS:QUAL	2:0:0:0:0.234951	2:1:1:1:12.1002	2:0:1:0:0.0392399
GTCTCGTTCTGATTCT-1	SC1	12.1002	OBS:POBS:DOBS:DPOBS:QUAL	2:0:0:0:0.234951	2:1:1:1:12.1002	2:0:1:0:0.0392399
GTCTTCGCACCGAATT-1	SC2	51.8781	OBS:POBS:DOBS:DPOBS:QUAL	3:0:0:0:2.24641e-05	3:0:0:0:5.71813e-06	3:3:3:3:51.8781
GTCTTCGTCCACGAAT-1	SC2	51.8781	OBS:POBS:DOBS:DPOBS:QUAL	3:0:0:0:2.24641e-05	3:0:0:0:5.71813e-06	3:3:3:3:51.8781
GTGCAGCGTGGGTCAA-1	SC2	10.2243	OBS:POBS:DOBS:DPOBS:QUAL	2:0:0:0:0.341859	2:0:0:0:0.0844986	2:1:2:1:10.2243
GTGCAGCTCGAGCCCA-1	SC2	33.4291	OBS:POBS:DOBS:DPOBS:QUAL	2:0:0:0:0.00157207	2:0:0:0:0.000400108	2:2:2:2:33.4291
GTGCGGTGTAATCGTC-1	SC2	10.8278	OBS:POBS:DOBS:DPOBS:QUAL	3:0:0:0:0.346703	3:0:1:0:0.0257797	3:1:2:1:10.8278
GTGCTTCAGGGAACGG-1	SC2	51.8781	OBS:POBS:DOBS:DPOBS:QUAL	3:0:0:0:2.24641e-05	3:0:0:0:5.71813e-06	3:3:3:3:51.8781
GTGGGTCCAAGTCATC-1	normal	6.29893	OBS:POBS:DOBS:DPOBS:QUAL	2:0:0:0:6.29893	2:0:0:0:0.941283	2:0:2:0:0.175574
GTGGGTCGTTGACGTT-1	SC2	51.8781	OBS:POBS:DOBS:DPOBS:QUAL	3:0:0:0:2.24641e-05	3:0:0:0:5.71813e-06	3:3:3:3:51.8781
GTGTGCGTCAAGCCTA-1	SC2	51.8781	OBS:POBS:DOBS:DPOBS:QUAL	3:0:0:0:2.24641e-05	3:0:0:0:5.71813e-06	3:3:3:3:51.8781
GTTAAGCCACAGAGGT-1	normal	4.08345	OBS:POBS:DOBS:DPOBS:QUAL	1:0:0:0:4.08345	1:0:1:0:0.209123	1:0:0:0:1.82778
GTTAAGCCAGCTGTAT-1	SC2	33.4291	OBS:POBS:DOBS:DPOBS:QUAL	2:0:0:0:0.00157207	2:0:0:0:0.000400108	2:2:2:2:33.4291
GTTACAGAGTACACCT-1	SC2	51.8781	OBS:POBS:DOBS:DPOBS:QUAL	3:0:0:0:2.24641e-05	3:0:0:0:5.71813e-06	3:3:3:3:51.8781
GTTACAGCACTTACGA-1	SC1	12.1002	OBS:POBS:DOBS:DPOBS:QUAL	2:0:0:0:0.234951	2:1:1:1:12.1002	2:0:1:0:0.0392399
GTTACAGGTCTAGGTT-1	SC1	12.1002	OBS:POBS:DOBS:DPOBS:QUAL	2:0:0:0:0.234951	2:1:1:1:12.1002	2:0:1:0:0.0392399
GTTCATTCAAGTCATC-1	normal	4.08345	OBS:POBS:DOBS:DPOBS:QUAL	1:0:0:0:4.08345	1:0:1:0:0.209123	1:0:0:0:1.82778
GTTCGGGAGCGTTGCC-1	SC2	33.4291	OBS:POBS:DOBS:DPOBS:QUAL	2:0:0:0:0.00157207	2:0:0:0:0.000400108	2:2:2:2:33.4291
GTTCGGGTCATTTGGG-1	SC2	33.4291	OBS:POBS:DOBS:DPOBS:QUAL	2:0:0:0:0.00157207	2:0:0:0:0.000400108	2:2:2:2:33.4291
GTTCGGGTCCTAGGGC-1	normal	3.46787	OBS:POBS:DOBS:DPOBS:QUAL	0:0:0:0:3.46787	0:0:0:0:0.655015	0:0:0:0:1.61151
GTTCGGGTCCTCAATT-1	normal	3.46787	OBS:POBS:DOBS:DPOBS:QUAL	0:0:0:0:3.46787	0:0:0:0:0.655015	0:0:0:0:1.61151
GTTTCTACAAAGTCAA-1	normal	4.08345	OBS:POBS:DOBS:DPOBS:QUAL	1:0:0:0:4.08345	1:0:1:0:0.209123	1:0:0:0:1.82778
GTTTCTATCGGCGGTT-1	SC2	33.4291	OBS:POBS:DOBS:DPOBS:QUAL	2:0:0:0:0.00157207	2:0:0:0:0.000400108	2:2:2:2:33.4291
TAAACCGCATGCTGGC-1	SC2	10.2243	OBS:POBS:DOBS:DPOBS:QUAL	2:0:0:0:0.341859	2:0:0:0:0.0844986	2:1:2:1:10.2243
TAAGAGAAGCCCAACC-1	normal	6.29893	OBS:POBS:DOBS:DPOBS:QUAL	2:0:0:0:6.29893	2:0:0:0:0.941283	2:0:2:0:0.175574
TAAGAGAAGCCGTCGT-1	SC2	51.8781	OBS:POBS:DOBS:DPOBS:QUAL	3:0:0:0:2.24641e-05	3:0:0:0:5.71813e-06	3:3:3:3:51.8781
TAAGAGAAGTGTCTCA-1	SC2	51.8781	OBS:POBS:DOBS:DPOBS:QUAL	3:0:0:0:2.24641e-05	3:0:0:0:5.71813e-06	3:3:3:3:51.8781
TAAGAGACAGGACCCT-1	normal	3.46787	OBS:POBS:DOBS:DPOBS:QUAL	0:0:0:0:3.46787	0:0:0:0:0.655015	0:0:0:0:1.61151
TAAGTGCCAAATTGCC-1	SC2	10.2243	OBS:POBS:DOBS:DPOBS:QUAL	2:0:0:0:0.341859	2:0:0:0:0.0844986	2:1:2:1:10.2243
TAAGTGCGTCAGAATA-1	SC2	51.8781	OBS:POBS:DOBS:DPOBS:QUAL	3:0:0:0:2.24641e-05	3:0:0:0:5.71813e-06	3:3:3:3:51.8781
TACAGTGTCTGCTGCT-1	SC1	12.1002	OBS:POBS:DOBS:DPOBS:QUAL	2:0:0:0:0.234951	2:1:1:1:12.1002	2:0:1:0:0.0392399
TACCTATCATGCCTTC-1	SC2	51.8781	OBS:POBS:DOBS:DPOBS:QUAL	3:0:0:0:2.24641e-05	3:0:0:0:5.71813e-06	3:3:3:3:51.8781
TACCTATTCCAGAGGA-1	SC2	51.8781	OBS:POBS:DOBS:DPOBS:QUAL	3:0:0:0:2.24641e-05	3:0:0:0:5.71813e-06	3:3:3:3:51.8781
TACGGATGTCAGGACA-1	normal	6.29893	OBS:POBS:DOBS:DPOBS:QUAL	2:0:0:0:6.29893	2:0:0:0:0.941283	2:0:2:0:0.175574
TACGGATGTTCAACCA-1	SC2	51.8781	OBS:POBS:DOBS:DPOBS:QUAL	3:0:0:0:2.24641e-05	3:0:0:0:5.71813e-06	3:3:3:3:51.8781
TACGGATTCGCAGGCT-1	SC2	51.8781	OBS:POBS:DOBS:DPOBS:QUAL	3:0:0:0:2.24641e-05	3:0:0:0:5.71813e-06	3:3:3:3:51.8781
TACGGGCTCTACTATC-1	SC2	51.8781	OBS:POBS:DOBS:DPOBS:QUAL	3:0:0:0:2.24641e-05	3:0:0:0:5.71813e-06	3:3:3:3:51.8781
TACTCATAGAGTCTGG-1	SC2	51.8781	OBS:POBS:DOBS:DPOBS:QUAL	3:0:0:0:2.24641e-05	3:0:0:0:5.71813e-06	3:3:3:3:51.8781
TACTCATTCTAGAGTC-1	normal	3.46787	OBS:POBS:DOBS:DPOBS:QUAL	0:0:0:0:3.46787	0:0:0:0:0.655015	0:0:0:0:1.61151
TACTTACAGCATGGCA-1	SC2	51.8781	OBS:POBS:DOBS:DPOBS:QUAL	3:0:0:0:2.24641e-05	3:0:0:0:5.71813e-06	3:3:3:3:51.8781
TACTTACGTTCAGTAC-1	normal	3.46787	OBS:POBS:DOBS:DPOBS:QUAL	0:0:0:0:3.46787	0:0:0:0:0.655015	0:0:0:0:1.61151
TACTTGTAGGACCACA-1	normal	3.46787	OBS:POBS:DOBS:DPOBS:QUAL	0:0:0:0:3.46787	0:0:0:0:0.655015	0:0:0:0:1.61151
TACTTGTAGGCCATAG-1	normal	6.29893	OBS:POBS:DOBS:DPOBS:QUAL	2:0:0:0:6.29893	2:0:0:0:0.941283	2:0:2:0:0.175574
TACTTGTAGGGTCGAT-1	normal	3.46787	OBS:POBS:DOBS:DPOBS:QUAL	0:0:0:0:3.46787	0:0:0:0:0.655015	0:0:0:0:1.61151
TACTTGTCAAGAGGCT-1	normal	3.46787	OBS:POBS:DOBS:DPOBS:QUAL	0:0:0:0:3.46787	0:0:0:0:0.655015	0:0:0:0:1.61151
TAGACCAAGGATGCGT-1	normal	6.29893	OBS:POBS:DOBS:DPOBS:QUAL	2:0:0:0:6.29893	2:0:0:0:0.941283	2:0:2:0:0.175574
TAGACCATCAAACGGG-1	normal	6.29893	OBS:POBS:DOBS:DPOBS:QUAL	2:0:0:0:6.29893	2:0:0:0:0.941283	2:0:2:0:0.175574
TAGCCGGAGTTTCCTT-1	SC2	51.8781	OBS:POBS:DOBS:DPOBS:QUAL	3:0:0:0:2.24641e-05	3:0:0:0:5.71813e-06	3:3:3:3:51.8781
TAGTGGTCACGGATAG-1	SC2	51.8781	OBS:POBS:DOBS:DPOBS:QUAL	3:0:0:0:2.24641e-05	3:0:0:0:5.71813e-06	3:3:3:3:51.8781
TAGTTGGAGTTACGGG-1	SC1	12.1002	OBS:POBS:DOBS:DPOBS:QUAL	2:0:0:0:0.234951	2:1:1:1:12.1002	2:0:1:0:0.0392399
TATCAGGAGTCAAGCG-1	SC2	33.4291	OBS:POBS:DOBS:DPOBS:QUAL	2:0:0:0:0.00157207	2:0:0:0:0.000400108	2:2:2:2:33.4291
TATCAGGGTTAAGTAG-1	normal	3.46787	OBS:POBS:DOBS:DPOBS:QUAL	0:0:0:0:3.46787	0:0:0:0:0.655015	0:0:0:0:1.61151
TATGCCCAGAAACGCC-1	normal	3.46787	OBS:POBS:DOBS:DPOBS:QUAL	0:0:0:0:3.46787	0:0:0:0:0.655015	0:0:0:0:1.61151
TATGCCCAGAGCTGCA-1	SC2	51.8781	OBS:POBS:DOBS:DPOBS:QUAL	3:0:0:0:2.24641e-05	3:0:0:0:5.71813e-06	3:3:3:3:51.8781
TATGCCCGTAGTAGTA-1	SC2	10.2243	OBS:POBS:DOBS:DPOBS:QUAL	2:0:0:0:0.341859	2:0:0:0:0.0844986	2:1:2:1:10.2243
TCAACGAAGAGCTTCT-1	normal	3.46787	OBS:POBS:DOBS:DPOBS:QUAL	0:0:0:0:3.46787	0:0:0:0:0.655015	0:0:0:0:1.61151
TCAACGACAGCCAATT-1	SC2	51.8781	OBS:POBS:DOBS:DPOBS:QUAL	3:0:0:0:2.24641e-05	3:0:0:0:5.71813e-06	3:3:3:3:51.8781
TCAATCTGTCTCTCGT-1	SC2	51.8781	OBS:POBS:DOBS:DPOBS:QUAL	3:0:0:0:2.24641e-05	3:0:0:0:5.71813e-06	3:3:3:3:51.8781
TCACAAGTCAACCAAC-1	SC2	51.8781	OBS:POBS:DOBS:DPOBS:QUAL	3:0:0:0:2.24641e-05	3:0:0:0:5.71813e-06	3:3:3:3:51.8781
TCACAAGTCTCTAAGG-1	SC1	12.1002	OBS:POBS:DOBS:DPOBS:QUAL	2:0:0:0:0.234951	2:1:1:1:12.1002	2:0:1:0:0.0392399
TCACGAAAGTACGCGA-1	normal	3.46787	OBS:POBS:DOBS:DPOBS:QUAL	0:0:0:0:3.46787	0:0:0:0:0.655015	0:0:0:0:1.61151
TCAGATGCATACGCTA-1	SC2	51.8781	OBS:POBS:DOBS:DPOBS:QUAL	3:0:0:0:2.24641e-05	3:0:0:0:5.71813e-06	3:3:3:3:51.8781
TCAGATGCATTGGGCC-1	normal	6.72149	OBS:POBS:DOBS:DPOBS:QUAL	3:0:0:0:6.72149	3:0:0:0:0.971236	3:0:3:0:0.0539578
TCAGATGTCAAACGGG-1	normal	3.46787	OBS:POBS:DOBS:DPOBS:QUAL	0:0:0:0:3.46787	0:0:0:0:0.655015	0:0:0:0:1.61151
TCAGATGTCCTTAATC-1	normal	6.29893	OBS:POBS:DOBS:DPOBS:QUAL	2:0:0:0:6.29893	2:0:0:0:0.941283	2:0:2:0:0.175574
TCAGCTCGTCACTGGC-1	normal	3.46787	OBS:POBS:DOBS:DPOBS:QUAL	0:0:0:0:3.46787	0:0:0:0:0.655015	0:0:0:0:1.61151
TCAGGATGTATGCTTG-1	normal	3.46787	OBS:POBS:DOBS:DPOBS:QUAL	0:0:0:0:3.46787	0:0:0:0:0.655015	0:0:0:0:1.61151
TCAGGATTCACTTATC-1	normal	6.29893	OBS:POBS:DOBS:DPOBS:QUAL	2:0:0:0:6.29893	2:0:0:0:0.941283	2:0:2:0:0.175574
TCAGGTAAGGTAAACT-1	SC2	51.8781	OBS:POBS:DOBS:DPOBS:QUAL	3:0:0:0:2.24641e-05	3:0:0:0:5.71813e-06	3:3:3:3:51.8781
TCAGGTACACATTTCT-1	normal	6.29893	OBS:POBS:DOBS:DPOBS:QUAL	2:0:0:0:6.29893	2:0:0:0:0.941283	2:0:2:0:0.175574
TCATTTGAGAGGGATA-1	SC1	12.1002	OBS:POBS:DOBS:DPOBS:QUAL	2:0:0:0:0.234951	2:1:1:1:12.1002	2:0:1:0:0.0392399
TCCACACGTCGAATCT-1	normal	3.46787	OBS:POBS:DOBS:DPOBS:QUAL	0:0:0:0:3.46787	0:0:0:0:0.655015	0:0:0:0:1.61151
TCGAGGCGTAATTGGA-1	normal	6.29893	OBS:POBS:DOBS:DPOBS:QUAL	2:0:0:0:6.29893	2:0:0:0:0.941283	2:0:2:0:0.175574
TCGGTAACATGTAGTC-1	normal	3.46787	OBS:POBS:DOBS:DPOBS:QUAL	0:0:0:0:3.46787	0:0:0:0:0.655015	0:0:0:0:1.61151
TCGTACCTCATCGGAT-1	SC2	51.8781	OBS:POBS:DOBS:DPOBS:QUAL	3:0:0:0:2.24641e-05	3:0:0:0:5.71813e-06	3:3:3:3:51.8781
TCTATTGCAGGATTGG-1	SC1	12.1002	OBS:POBS:DOBS:DPOBS:QUAL	2:0:0:0:0.234951	2:1:1:1:12.1002	2:0:1:0:0.0392399
TCTATTGGTTCGTTGA-1	normal	3.46787	OBS:POBS:DOBS:DPOBS:QUAL	0:0:0:0:3.46787	0:0:0:0:0.655015	0:0:0:0:1.61151
TCTCATACAAGGCTCC-1	normal	3.46787	OBS:POBS:DOBS:DPOBS:QUAL	0:0:0:0:3.46787	0:0:0:0:0.655015	0:0:0:0:1.61151
TCTCTAAAGCCGCCTA-1	SC2	51.8781	OBS:POBS:DOBS:DPOBS:QUAL	3:0:0:0:2.24641e-05	3:0:0:0:5.71813e-06	3:3:3:3:51.8781
TCTCTAAAGGCCATAG-1	SC2	33.4291	OBS:POBS:DOBS:DPOBS:QUAL	2:0:0:0:0.00157207	2:0:0:0:0.000400108	2:2:2:2:33.4291
TCTCTAAAGTTAGCGG-1	SC2	51.8781	OBS:POBS:DOBS:DPOBS:QUAL	3:0:0:0:2.24641e-05	3:0:0:0:5.71813e-06	3:3:3:3:51.8781
TCTCTAAGTACGAAAT-1	SC2	51.8781	OBS:POBS:DOBS:DPOBS:QUAL	3:0:0:0:2.24641e-05	3:0:0:0:5.71813e-06	3:3:3:3:51.8781
TCTGAGAGTGACGCCT-1	normal	6.29893	OBS:POBS:DOBS:DPOBS:QUAL	2:0:0:0:6.29893	2:0:0:0:0.941283	2:0:2:0:0.175574
TCTGGAAAGTACGCGA-1	normal	3.46787	OBS:POBS:DOBS:DPOBS:QUAL	0:0:0:0:3.46787	0:0:0:0:0.655015	0:0:0:0:1.61151
TCTGGAACAGGGTTAG-1	SC2	10.2243	OBS:POBS:DOBS:DPOBS:QUAL	2:0:0:0:0.341859	2:0:0:0:0.0844986	2:1:2:1:10.2243
TCTTCGGAGTTAGCGG-1	SC2	33.4291	OBS:POBS:DOBS:DPOBS:QUAL	2:0:0:0:0.00157207	2:0:0:0:0.000400108	2:2:2:2:33.4291
TCTTCGGCAATTCCTT-1	normal	3.46787	OBS:POBS:DOBS:DPOBS:QUAL	0:0:0:0:3.46787	0:0:0:0:0.655015	0:0:0:0:1.61151
TCTTTCCTCTGTTGAG-1	normal	3.46787	OBS:POBS:DOBS:DPOBS:QUAL	0:0:0:0:3.46787	0:0:0:0:0.655015	0:0:0:0:1.61151
TGAAAGAGTCCAGTAT-1	SC2	10.2243	OBS:POBS:DOBS:DPOBS:QUAL	2:0:0:0:0.341859	2:0:0:0:0.0844986	2:1:2:1:10.2243
TGAAAGAGTGGTAACG-1	normal	7.01856	OBS:POBS:DOBS:DPOBS:QUAL	2:0:0:0:7.01856	2:0:1:0:0.277093	2:0:1:0:0.639214
TGAAAGAGTTCAGTAC-1	SC1	12.1002	OBS:POBS:DOBS:DPOBS:QUAL	2:0:0:0:0.234951	2:1:1:1:12.1002	2:0:1:0:0.0392399
TGACAACGTACAGTGG-1	normal	3.46787	OBS:POBS:DOBS:DPOBS:QUAL	0:0:0:0:3.46787	0:0:0:0:0.655015	0:0:0:0:1.61151
TGACGGCGTTTGACTG-1	SC2	10.2243	OBS:POBS:DOBS:DPOBS:QUAL	2:0:0:0:0.341859	2:0:0:0:0.0844986	2:1:2:1:10.2243
TGACTAGCATTGGTAC-1	normal	6.29893	OBS:POBS:DOBS:DPOBS:QUAL	2:0:0:0:6.29893	2:0:0:0:0.941283	2:0:2:0:0.175574
TGACTAGGTTGTACAC-1	normal	6.29893	OBS:POBS:DOBS:DPOBS:QUAL	2:0:0:0:6.29893	2:0:0:0:0.941283	2:0:2:0:0.175574
TGACTTTCAGCCAGAA-1	SC2	23.0782	OBS:POBS:DOBS:DPOBS:QUAL	4:0:0:0:0.0170737	4:0:0:0:0.00433967	4:2:4:2:23.0782
TGACTTTTCACAACGT-1	normal	3.46787	OBS:POBS:DOBS:DPOBS:QUAL	0:0:0:0:3.46787	0:0:0:0:0.655015	0:0:0:0:1.61151
TGAGAGGAGGCGATAC-1	SC2	33.4291	OBS:POBS:DOBS:DPOBS:QUAL	2:0:0:0:0.00157207	2:0:0:0:0.000400108	2:2:2:2:33.4291
TGAGAGGCACGCCAGT-1	normal	3.46787	OBS:POBS:DOBS:DPOBS:QUAL	0:0:0:0:3.46787	0:0:0:0:0.655015	0:0:0:0:1.61151
TGAGGGAAGTACGCGA-1	SC2	51.8781	OBS:POBS:DOBS:DPOBS:QUAL	3:0:0:0:2.24641e-05	3:0:0:0:5.71813e-06	3:3:3:3:51.8781
TGATTTCCATTCACTT-1	normal	6.29893	OBS:POBS:DOBS:DPOBS:QUAL	2:0:0:0:6.29893	2:0:0:0:0.941283	2:0:2:0:0.175574
TGCCAAAAGGCATGGT-1	SC2	51.8781	OBS:POBS:DOBS:DPOBS:QUAL	3:0:0:0:2.24641e-05	3:0:0:0:5.71813e-06	3:3:3:3:51.8781
TGCGCAGAGCCTTGAT-1	normal	3.46787	OBS:POBS:DOBS:DPOBS:QUAL	0:0:0:0:3.46787	0:0:0:0:0.655015	0:0:0:0:1.61151
TGCGTGGGTACCGTAT-1	normal	6.29893	OBS:POBS:DOBS:DPOBS:QUAL	2:0:0:0:6.29893	2:0:0:0:0.941283	2:0:2:0:0.175574
TGGCCAGAGCCACTAT-1	SC1	12.1002	OBS:POBS:DOBS:DPOBS:QUAL	2:0:0:0:0.234951	2:1:1:1:12.1002	2:0:1:0:0.0392399
TGGCGCAGTAGCTAAA-1	normal	3.46787	OBS:POBS:DOBS:DPOBS:QUAL	0:0:0:0:3.46787	0:0:0:0:0.655015	0:0:0:0:1.61151
TGGCTGGTCGTACCGG-1	normal	3.46787	OBS:POBS:DOBS:DPOBS:QUAL	0:0:0:0:3.46787	0:0:0:0:0.655015	0:0:0:0:1.61151
TGGGAAGAGAAGATTC-1	normal	3.46787	OBS:POBS:DOBS:DPOBS:QUAL	0:0:0:0:3.46787	0:0:0:0:0.655015	0:0:0:0:1.61151
TGGGAAGTCAGTGCAT-1	SC2	33.4291	OBS:POBS:DOBS:DPOBS:QUAL	2:0:0:0:0.00157207	2:0:0:0:0.000400108	2:2:2:2:33.4291
TGGGCGTCAAAGAATC-1	SC2	10.2243	OBS:POBS:DOBS:DPOBS:QUAL	2:0:0:0:0.341859	2:0:0:0:0.0844986	2:1:2:1:10.2243
TGGGCGTCAGTATGCT-1	normal	6.29893	OBS:POBS:DOBS:DPOBS:QUAL	2:0:0:0:6.29893	2:0:0:0:0.941283	2:0:2:0:0.175574
TGGGCGTCATGCCACG-1	SC2	33.4291	OBS:POBS:DOBS:DPOBS:QUAL	2:0:0:0:0.00157207	2:0:0:0:0.000400108	2:2:2:2:33.4291
TGGGCGTGTTAGAACA-1	SC1	12.1002	OBS:POBS:DOBS:DPOBS:QUAL	2:0:0:0:0.234951	2:1:1:1:12.1002	2:0:1:0:0.0392399
TGTATTCTCTATCGCC-1	normal	4.08345	OBS:POBS:DOBS:DPOBS:QUAL	1:0:0:0:4.08345	1:0:1:0:0.209123	1:0:0:0:1.82778
TGTCCCAAGGATGGTC-1	SC2	33.4291	OBS:POBS:DOBS:DPOBS:QUAL	2:0:0:0:0.00157207	2:0:0:0:0.000400108	2:2:2:2:33.4291
TGTCCCAGTAGGCATG-1	SC2	51.8781	OBS:POBS:DOBS:DPOBS:QUAL	3:0:0:0:2.24641e-05	3:0:0:0:5.71813e-06	3:3:3:3:51.8781
TGTCCCAGTTCACGGC-1	SC2	51.8781	OBS:POBS:DOBS:DPOBS:QUAL	3:0:0:0:2.24641e-05	3:0:0:0:5.71813e-06	3:3:3:3:51.8781
TGTGGTATCGCTAGCG-1	SC1	12.1002	OBS:POBS:DOBS:DPOBS:QUAL	2:0:0:0:0.234951	2:1:1:1:12.1002	2:0:1:0:0.0392399
TGTGTTTTCTGATTCT-1	SC2	10.2243	OBS:POBS:DOBS:DPOBS:QUAL	2:0:0:0:0.341859	2:0:0:0:0.0844986	2:1:2:1:10.2243
TGTTCCGCAGGTGCCT-1	SC1	12.1002	OBS:POBS:DOBS:DPOBS:QUAL	2:0:0:0:0.234951	2:1:1:1:12.1002	2:0:1:0:0.0392399
TTAACTCGTAGCTCCG-1	SC2	51.8781	OBS:POBS:DOBS:DPOBS:QUAL	3:0:0:0:2.24641e-05	3:0:0:0:5.71813e-06	3:3:3:3:51.8781
TTAGGACCATCTGGTA-1	SC2	51.8781	OBS:POBS:DOBS:DPOBS:QUAL	3:0:0:0:2.24641e-05	3:0:0:0:5.71813e-06	3:3:3:3:51.8781
TTAGGACGTCAATGTC-1	normal	3.46787	OBS:POBS:DOBS:DPOBS:QUAL	0:0:0:0:3.46787	0:0:0:0:0.655015	0:0:0:0:1.61151
TTAGGACTCATTGCCC-1	normal	6.29893	OBS:POBS:DOBS:DPOBS:QUAL	2:0:0:0:6.29893	2:0:0:0:0.941283	2:0:2:0:0.175574
TTAGGACTCGGATGGA-1	SC2	52.5403	OBS:POBS:DOBS:DPOBS:QUAL	4:0:0:0:2.24641e-05	4:0:1:0:1.73277e-06	4:3:3:3:52.5403
TTAGTTCGTGTGCCTG-1	SC2	51.8781	OBS:POBS:DOBS:DPOBS:QUAL	3:0:0:0:2.24641e-05	3:0:0:0:5.71813e-06	3:3:3:3:51.8781
TTATGCTGTACCATCA-1	SC2	51.8781	OBS:POBS:DOBS:DPOBS:QUAL	3:0:0:0:2.24641e-05	3:0:0:0:5.71813e-06	3:3:3:3:51.8781
TTCCCAGAGATGAGAG-1	normal	3.46787	OBS:POBS:DOBS:DPOBS:QUAL	0:0:0:0:3.46787	0:0:0:0:0.655015	0:0:0:0:1.61151
TTCCCAGGTCTACCTC-1	SC2	10.2243	OBS:POBS:DOBS:DPOBS:QUAL	2:0:0:0:0.341859	2:0:0:0:0.0844986	2:1:2:1:10.2243
TTCCCAGTCTGACCTC-1	SC2	51.8781	OBS:POBS:DOBS:DPOBS:QUAL	3:0:0:0:2.24641e-05	3:0:0:0:5.71813e-06	3:3:3:3:51.8781
TTCGGTCAGCTGAACG-1	SC1	12.1002	OBS:POBS:DOBS:DPOBS:QUAL	2:0:0:0:0.234951	2:1:1:1:12.1002	2:0:1:0:0.0392399
TTCGGTCTCTCGTTTA-1	SC2	51.8781	OBS:POBS:DOBS:DPOBS:QUAL	3:0:0:0:2.24641e-05	3:0:0:0:5.71813e-06	3:3:3:3:51.8781
TTCTACAAGGAGCGTT-1	SC2	33.4291	OBS:POBS:DOBS:DPOBS:QUAL	2:0:0:0:0.00157207	2:0:0:0:0.000400108	2:2:2:2:33.4291
TTCTCAACACCATGTA-1	SC2	51.8781	OBS:POBS:DOBS:DPOBS:QUAL	3:0:0:0:2.24641e-05	3:0:0:0:5.71813e-06	3:3:3:3:51.8781
TTCTCAACATCGTCGG-1	SC2	51.8781	OBS:POBS:DOBS:DPOBS:QUAL	3:0:0:0:2.24641e-05	3:0:0:0:5.71813e-06	3:3:3:3:51.8781
TTCTCAAGTGAGTGAC-1	normal	3.46787	OBS:POBS:DOBS:DPOBS:QUAL	0:0:0:0:3.46787	0:0:0:0:0.655015	0:0:0:0:1.61151
TTCTCAATCGCCGTGA-1	SC2	10.2243	OBS:POBS:DOBS:DPOBS:QUAL	2:0:0:0:0.341859	2:0:0:0:0.0844986	2:1:2:1:10.2243
TTCTCAATCTCTAAGG-1	normal	6.29893	OBS:POBS:DOBS:DPOBS:QUAL	2:0:0:0:6.29893	2:0:0:0:0.941283	2:0:2:0:0.175574
TTCTTAGGTCATCGGC-1	normal	3.46787	OBS:POBS:DOBS:DPOBS:QUAL	0:0:0:0:3.46787	0:0:0:0:0.655015	0:0:0:0:1.61151
TTGACTTGTCAAACTC-1	normal	3.46787	OBS:POBS:DOBS:DPOBS:QUAL	0:0:0:0:3.46787	0:0:0:0:0.655015	0:0:0:0:1.61151
TTGCCGTGTCTCAACA-1	SC2	51.8781	OBS:POBS:DOBS:DPOBS:QUAL	3:0:0:0:2.24641e-05	3:0:0:0:5.71813e-06	3:3:3:3:51.8781
TTGCGTCAGCCAGTAG-1	normal	3.46787	OBS:POBS:DOBS:DPOBS:QUAL	0:0:0:0:3.46787	0:0:0:0:0.655015	0:0:0:0:1.61151
TTGGAACAGAGCTGCA-1	SC2	33.4291	OBS:POBS:DOBS:DPOBS:QUAL	2:0:0:0:0.00157207	2:0:0:0:0.000400108	2:2:2:2:33.4291
TTGTAGGCATACTCTT-1	SC2	51.8781	OBS:POBS:DOBS:DPOBS:QUAL	3:0:0:0:2.24641e-05	3:0:0:0:5.71813e-06	3:3:3:3:51.8781
TTTATGCAGACTCGGA-1	SC2	33.4291	OBS:POBS:DOBS:DPOBS:QUAL	2:0:0:0:0.00157207	2:0:0:0:0.000400108	2:2:2:2:33.4291
TTTATGCGTCACCCAG-1	normal	3.46787	OBS:POBS:DOBS:DPOBS:QUAL	0:0:0:0:3.46787	0:0:0:0:0.655015	0:0:0:0:1.61151
TTTCCTCAGGACAGCT-1	normal	4.08345	OBS:POBS:DOBS:DPOBS:QUAL	1:0:0:0:4.08345	1:0:1:0:0.209123	1:0:0:0:1.82778
TTTCCTCCAAACGCGA-1	SC2	33.4291	OBS:POBS:DOBS:DPOBS:QUAL	2:0:0:0:0.00157207	2:0:0:0:0.000400108	2:2:2:2:33.4291
TTTGGTTCAAACTGTC-1	normal	6.29893	OBS:POBS:DOBS:DPOBS:QUAL	2:0:0:0:6.29893	2:0:0:0:0.941283	2:0:2:0:0.175574
TTTGGTTCAAGTAGTA-1	normal	3.46787	OBS:POBS:DOBS:DPOBS:QUAL	0:0:0:0:3.46787	0:0:0:0:0.655015	0:0:0:0:1.61151
TTTGTCAAGAGCTTCT-1	SC1	12.1002	OBS:POBS:DOBS:DPOBS:QUAL	2:0:0:0:0.234951	2:1:1:1:12.1002	2:0:1:0:0.0392399
